<?xml version="1.0" encoding="UTF-8" standalone="no"?>
<!-- Created with Inkscape (http://www.inkscape.org/) -->

<svg
   xmlns:dc="http://purl.org/dc/elements/1.1/"
   xmlns:cc="http://creativecommons.org/ns#"
   xmlns:rdf="http://www.w3.org/1999/02/22-rdf-syntax-ns#"
   xmlns:svg="http://www.w3.org/2000/svg"
   xmlns="http://www.w3.org/2000/svg"
   xmlns:sodipodi="http://sodipodi.sourceforge.net/DTD/sodipodi-0.dtd"
   xmlns:inkscape="http://www.inkscape.org/namespaces/inkscape"
   width="200mm"
   height="200mm"
   viewBox="0 0 708.66143 708.66141"
   id="svg3912"
   version="1.1"
   inkscape:version="0.91 r13725"
   inkscape:export-filename="C:\Users\murtyjones\VBoxWeb2py\web2py\applications\nolabills\static\images\download.png"
   inkscape:export-xdpi="14.25"
   inkscape:export-ydpi="14.25"
   sodipodi:docname="download.svg">
  <defs
     id="defs3914" />
  <sodipodi:namedview
     id="base"
     pagecolor="#ffffff"
     bordercolor="#666666"
     borderopacity="1.0"
     inkscape:pageopacity="0.0"
     inkscape:pageshadow="2"
     inkscape:zoom="0.5"
     inkscape:cx="-248.67717"
     inkscape:cy="141.78486"
     inkscape:document-units="px"
     inkscape:current-layer="Layer_x0020_1"
     showgrid="false"
     inkscape:window-width="1600"
     inkscape:window-height="837"
     inkscape:window-x="-8"
     inkscape:window-y="-8"
     inkscape:window-maximized="1" />
  <metadata
     id="metadata3917">
    <rdf:RDF>
      <cc:Work
         rdf:about="">
        <dc:format>image/svg+xml</dc:format>
        <dc:type
           rdf:resource="http://purl.org/dc/dcmitype/StillImage" />
        <dc:title />
      </cc:Work>
    </rdf:RDF>
  </metadata>
  <g
     inkscape:label="Layer 1"
     inkscape:groupmode="layer"
     id="layer1"
     transform="translate(0,-343.70083)">
    <g
       style="clip-rule:evenodd;fill-rule:evenodd;image-rendering:optimizeQuality;shape-rendering:geometricPrecision;text-rendering:geometricPrecision"
       id="Layer_x0020_1"
       transform="matrix(0.03543239,0,0,0.03543239,-598.08134,250.20719)">
      <metadata
         id="CorelCorpID_0Corel-Layer" />
      <g
         id="g423"
         transform="matrix(9.16378,0,0,9.16378,-67148.648,-134700.94)"
         style="fill:#93c54b;fill-opacity:1"
         inkscape:export-xdpi="14.25"
         inkscape:export-ydpi="14.25">
        <path
           style="fill:#93c54b;fill-opacity:1"
           inkscape:connector-curvature="0"
           id="path425"
           d="m 6849,16031 584,-75 -223,-544 -77,183 c -463,-92 -593,-23 -786,263 262,-129 432,-176 644,-51 l -142,224 z"
           class="fil1" />
        <path
           style="fill:#93c54b;fill-opacity:1"
           inkscape:connector-curvature="0"
           id="path427"
           d="m 6920,16162 -583,75 223,544 77,-183 c 462,92 593,23 785,-263 -262,129 -432,176 -643,50 l 141,-223 z"
           class="fil1" />
      </g>
      <g
         id="g283"
         transform="matrix(8.9466265,0,0,8.9466265,-34492.637,-112260.74)"
         style="fill:#34406e;fill-opacity:1"
         inkscape:export-xdpi="14.25"
         inkscape:export-ydpi="14.25">
        <path
           class="fil1"
           d="m 6238,13570 500,0 c 30,0 54,24 54,54 l 0,87 227,0 0,99 -132,0 c -67,-31 -126,-48 -165,-11 l -1,1 c -3,3 -6,6 -9,10 l -240,0 c -37,0 -75,30 -85,66 l -158,551 c -25,-4 -45,-27 -45,-53 l 0,-750 c 0,-30 25,-54 54,-54 z"
           id="path285"
           inkscape:connector-curvature="0"
           style="fill:#34406e;fill-opacity:1" />
        <path
           class="fil1"
           d="m 7552,14008 -129,451 c -9,32 -43,59 -75,59 l -1032,0 c -32,0 -51,-27 -42,-59 l 154,-538 c 9,-32 43,-59 75,-59 l 184,0 c -2,9 -3,18 -3,26 l 0,0 c 0,32 13,64 37,89 l 0,0 342,342 0,0 c 25,25 57,37 89,37 32,0 64,-12 88,-37 l 312,-311 z m -559,-146 26,0 0,13 c -9,-4 -18,-8 -26,-13 z m 306,0 12,0 -12,6 0,-6 z"
           id="path287"
           inkscape:connector-curvature="0"
           style="fill:#34406e;fill-opacity:1" />
        <path
           class="fil1"
           d="m 7559,13824 c 35,35 35,93 0,129 l -343,342 c -35,36 -93,36 -129,0 l -342,-342 c -35,-36 -35,-94 0,-129 49,-46 186,55 308,103 l 0,-477 c 0,-33 27,-60 60,-60 l 92,0 c 33,0 60,27 60,60 l 0,471 c 116,-49 239,-139 294,-97 z"
           id="path289"
           inkscape:connector-curvature="0"
           style="fill:#34406e;fill-opacity:1" />
      </g>
      <polygon
         class="fil1"
         points="25983,18867 26263,18867 26263,18370 27078,18867 27078,17527 26263,18025 26263,17527 25983,17527 25983,18195 25979,18197 25983,18199 "
         id="polygon133"
         style="fill:#83836c"
         transform="translate(7968.2272,16632.616)" />
      <path
         class="fil1"
         d="m 14860.227,34172.615 c 32,0 58,26 58,57 l 0,1200 c 0,32 -26,58 -58,58 l -369,-397 -339,0 c -21,0 -39,-17 -39,-38 l 0,-453 c 0,-21 18,-38 39,-38 l 346,0 362,-389 z m 732,589 0,137 c 0,8 -6,15 -14,15 l -506,0 c -8,0 -15,-7 -15,-15 l 0,-137 c 0,-8 7,-15 15,-15 l 506,0 c 8,0 14,7 14,15 z"
         id="path135"
         inkscape:connector-curvature="0"
         style="fill:#83836c" />
      <path
         class="fil1"
         d="m 18744.227,34355.615 c 262,-261 686,-261 948,0 262,262 262,687 0,948 -262,262 -686,262 -948,0 -261,-262 -261,-686 0,-948 z m 693,57 c 20,0 36,17 36,37 l 0,761 c 0,20 -16,36 -36,36 l -234,-251 -216,0 c -13,0 -24,-11 -24,-25 l 0,-286 c 0,-14 11,-25 24,-25 l 220,0 230,-247 z m -610,-17 236,236 -87,0 -192,-192 c -207,229 -200,583 21,803 221,221 575,228 804,22 l -93,-94 0,-87 136,137 c 207,-229 200,-583 -21,-804 -221,-221 -574,-228 -804,-21 z"
         id="path137"
         inkscape:connector-curvature="0"
         style="fill:#83836c" />
      <g
         id="g139"
         transform="translate(7968.2272,16632.616)">
        <path
           class="fil1"
           d="m 9100,17540 c 32,0 58,26 58,57 l 0,1200 c 0,32 -26,58 -58,58 l -369,-397 -339,0 c -21,0 -39,-17 -39,-38 l 0,-453 c 0,-21 18,-38 39,-38 l 346,0 362,-389 z"
           id="path141"
           inkscape:connector-curvature="0"
           style="fill:#83836c" />
        <path
           class="fil1"
           d="m 9445,17930 137,0 c 9,0 15,6 15,14 l 0,170 170,0 c 8,0 14,7 14,15 l 0,137 c 0,8 -6,15 -14,15 l -170,0 0,169 c 0,8 -6,15 -15,15 l -137,0 c -8,0 -14,-7 -14,-15 l 0,-169 -170,0 c -8,0 -15,-7 -15,-15 l 0,-137 c 0,-8 7,-15 15,-15 l 170,0 0,-170 c 0,-8 6,-14 14,-14 z"
           id="path143"
           inkscape:connector-curvature="0"
           style="fill:#83836c" />
      </g>
      <path
         class="fil1"
         d="m 21205.227,34159.615 890,670 -890,670 0,-324 460,-346 -460,-346 0,-324 z m -499,0 890,670 -890,670 0,-1340 z"
         id="path145"
         inkscape:connector-curvature="0"
         style="fill:#83836c" />
      <polygon
         class="fil1"
         points="19431,17527 20530,18197 19431,18867 "
         id="polygon147"
         style="fill:#83836c"
         transform="translate(7968.2272,16632.616)" />
      <polygon
         class="fil1"
         points="16161,18867 15881,18867 15881,18370 15066,18867 15066,17527 15881,18025 15881,17527 16161,17527 16161,18195 16165,18197 16161,18199 "
         id="polygon149"
         style="fill:#83836c"
         transform="translate(7968.2272,16632.616)" />
      <g
         id="g151"
         transform="translate(7968.2272,16632.616)">
        <rect
           class="fil1"
           x="17317"
           y="17527"
           width="407"
           height="1340"
           id="rect153"
           style="fill:#83836c" />
        <rect
           class="fil1"
           x="17872"
           y="17527"
           width="407"
           height="1340"
           id="rect155"
           style="fill:#83836c" />
      </g>
      <rect
         class="fil1"
         x="31644.227"
         y="34159.617"
         width="1340"
         height="1340"
         id="rect157"
         style="fill:#83836c" />
      <path
         class="fil1"
         d="m 37374.227,34159.615 -890,670 890,670 0,-1340 z m -499,0 -890,670 890,670 0,-324 -460,-346 460,-346 0,-324 z"
         id="path159"
         inkscape:connector-curvature="0"
         style="fill:#83836c" />
      <path
         class="fil1"
         d="m 30131.227,34159.615 c 370,0 670,300 670,670 0,370 -300,670 -670,670 -370,0 -670,-300 -670,-670 0,-370 300,-670 670,-670 z m 0,374 c 164,0 297,133 297,296 0,164 -133,297 -297,297 -163,0 -296,-133 -296,-297 0,-163 133,-296 296,-296 z"
         id="path161"
         inkscape:connector-curvature="0"
         style="fill:#83836c" />
      <path
         class="fil1"
         d="m 40374.227,35488.615 0,-329 1341,0 0,329 -1341,0 z m 1,-430 670,-887 670,887 -1340,0 z"
         id="path163"
         inkscape:connector-curvature="0"
         style="fill:#83836c" />
      <g
         id="g165"
         transform="translate(7968.2272,16632.616)">
        <path
           class="fil1"
           d="m 4777,17554 c 32,0 59,27 59,59 l 0,1224 c 0,32 -27,58 -59,58 l -376,-404 -346,0 c -22,0 -39,-18 -39,-40 l 0,-461 c 0,-21 17,-39 39,-39 l 353,0 369,-397 z"
           id="path167"
           inkscape:connector-curvature="0"
           style="fill:#83836c" />
        <path
           class="fil2"
           d="m 5055,17751 c 30,69 53,142 69,216 15,74 23,149 23,225 0,80 -9,161 -26,239 -18,79 -44,156 -79,229 -10,22 -52,38 -74,23 -11,-8 -17,-24 -18,-41 l 0,0 0,-2 0,-3 0,-1 0,0 c 0,-6 1,-12 3,-18 21,-67 37,-136 47,-208 11,-71 16,-144 16,-218 0,-70 -5,-138 -14,-205 -9,-68 -23,-133 -42,-197 -7,-24 1,-53 17,-64 22,-15 67,1 78,25 z"
           id="path169"
           inkscape:connector-curvature="0"
           style="fill:#83836c;fill-rule:nonzero" />
        <path
           class="fil2"
           d="m 5138,17507 c 21,-16 59,-4 72,17 58,102 103,210 133,322 30,113 46,229 46,346 0,117 -16,233 -46,345 -30,112 -75,221 -133,322 -13,22 -51,34 -72,18 -20,-15 -23,-45 -14,-66 41,-94 72,-194 93,-299 21,-104 32,-211 32,-320 0,-109 -11,-217 -32,-321 -21,-104 -52,-205 -93,-298 -9,-22 -5,-52 14,-66 z"
           id="path171"
           inkscape:connector-curvature="0"
           style="fill:#83836c;fill-rule:nonzero" />
      </g>
      <path
         class="fil1"
         d="m 38191.227,34159.615 129,0 0,1340 -129,0 0,-1340 z m 243,0 176,108 0,1125 -176,107 0,-1340 z m 304,186 794,484 -794,485 0,-969 z"
         id="path173"
         inkscape:connector-curvature="0"
         style="fill:#83836c" />
      <g
         id="g175"
         transform="translate(7968.2272,16632.616)">
        <path
           class="fil1"
           d="m 35259,17570 0,0 c -126,0 -229,103 -229,229 l 0,505 c 0,85 46,159 115,199 l 0,247 c 0,41 34,75 75,75 l 78,0 c 42,0 75,-34 75,-75 l 0,-247 c 69,-40 116,-114 116,-199 l 0,-505 c 0,-126 -104,-229 -230,-229 z"
           id="path177"
           inkscape:connector-curvature="0"
           style="fill:#83836c" />
        <g
           id="g179">
          <g
             id="g181">
            <path
               class="fil2"
               d="m 35792,17766 c -22,50 -39,102 -50,156 -11,54 -17,108 -17,163 0,58 6,116 19,173 13,57 32,112 57,165 8,17 38,28 54,17 8,-6 12,-17 13,-30 l 0,0 0,-1 0,-2 0,-1 0,0 c 0,-4 -1,-9 -2,-13 -15,-48 -27,-99 -35,-150 -7,-52 -11,-105 -11,-158 0,-50 3,-100 10,-149 7,-48 17,-96 30,-142 5,-18 0,-38 -12,-46 -16,-11 -48,0 -56,18 z"
               id="path183"
               inkscape:connector-curvature="0"
               style="fill:#83836c;fill-rule:nonzero" />
            <path
               class="fil2"
               d="m 35732,17589 c -15,-12 -43,-3 -52,13 -43,73 -75,152 -97,233 -21,81 -33,165 -33,250 0,84 12,169 33,250 22,81 54,159 97,233 9,15 37,24 52,13 14,-11 16,-33 10,-48 -30,-68 -52,-141 -68,-216 -15,-76 -23,-153 -23,-232 0,-79 8,-157 23,-232 16,-76 38,-148 68,-216 6,-16 4,-38 -10,-48 z"
               id="path185"
               inkscape:connector-curvature="0"
               style="fill:#83836c;fill-rule:nonzero" />
          </g>
          <g
             id="g187">
            <path
               class="fil2"
               d="m 34726,17766 c 23,50 39,102 51,156 11,54 17,108 17,163 0,58 -7,116 -20,173 -13,57 -31,112 -56,165 -8,17 -38,28 -54,17 -8,-6 -13,-17 -13,-30 l 0,0 0,-1 0,-2 0,-1 0,0 c 0,-4 1,-9 2,-13 15,-48 26,-99 34,-150 8,-52 12,-105 12,-158 0,-50 -4,-100 -11,-149 -6,-48 -16,-96 -30,-142 -5,-18 0,-38 12,-46 16,-11 49,0 56,18 z"
               id="path189"
               inkscape:connector-curvature="0"
               style="fill:#83836c;fill-rule:nonzero" />
            <path
               class="fil2"
               d="m 34787,17589 c 15,-12 43,-3 52,13 42,73 74,152 96,233 22,81 33,165 33,250 0,84 -11,169 -33,250 -22,81 -54,159 -96,233 -9,15 -37,24 -52,13 -14,-11 -17,-33 -10,-48 29,-68 52,-141 67,-216 15,-76 23,-153 23,-232 0,-79 -8,-157 -23,-232 -15,-76 -38,-148 -67,-216 -7,-16 -4,-38 10,-48 z"
               id="path191"
               inkscape:connector-curvature="0"
               style="fill:#83836c;fill-rule:nonzero" />
          </g>
        </g>
      </g>
      <g
         id="g195"
         transform="translate(7968.2272,16632.616)">
        <path
           class="fil1"
           d="m 25970,8758 658,0 0,192 0,23 26,0 173,0 0,51 -665,0 0,749 -192,0 0,-1015 z m 702,0 147,174 -147,0 0,-174 z"
           id="path197"
           inkscape:connector-curvature="0"
           style="fill:#83836c" />
        <path
           class="fil1"
           d="m 26230,9091 658,0 0,192 0,24 27,0 173,0 0,799 -858,0 0,-1015 z m 702,0 147,174 -147,0 0,-174 z"
           id="path199"
           inkscape:connector-curvature="0"
           style="fill:#83836c" />
        <rect
           class="fil1"
           x="26367"
           y="9344"
           width="585"
           height="632"
           id="rect201"
           style="fill:#83836c" />
        <g
           id="g203">
          <rect
             class="fil1"
             x="26438"
             y="9418"
             width="253.72301"
             height="30.753799"
             id="rect205"
             style="fill:#83836c" />
          <rect
             class="fil1"
             x="26438"
             y="9506"
             width="443.45901"
             height="30.753799"
             id="rect207"
             style="fill:#83836c" />
          <rect
             class="fil1"
             x="26438"
             y="9595"
             width="443.45901"
             height="30.753799"
             id="rect209"
             style="fill:#83836c" />
          <rect
             class="fil1"
             x="26438"
             y="9684"
             width="443.45901"
             height="30.753799"
             id="rect211"
             style="fill:#83836c" />
          <rect
             class="fil1"
             x="26438"
             y="9773"
             width="443.45901"
             height="30.753799"
             id="rect213"
             style="fill:#83836c" />
          <rect
             class="fil1"
             x="26438"
             y="9862"
             width="443.45901"
             height="30.753799"
             id="rect215"
             style="fill:#83836c" />
        </g>
      </g>
      <path
         class="fil1"
         d="m 15130.227,25465.616 155,0 c 21,0 39,18 39,39 l 0,259 301,206 c 15,10 19,30 9,45 l 0,0 c -10,14 -30,18 -45,8 l -736,-505 -737,505 c -14,10 -34,7 -44,-9 l 0,0 c -10,-14 -6,-34 8,-44 l 748,-512 c 5,-7 14,-11 23,-11 l 0,0 0,0 0,0 c 10,-1 20,3 27,11 l 212,145 0,-98 c 0,-21 18,-39 40,-39 z m -826,502 547,-379 547,379 0,223.999 0,406 c 0,47 -38,85 -85,85 l -315,0 0,-538 -277,0 0,538 -332,0 c -47,0 -85,-38 -85,-85 l 0,-406 c 0,-200.999 0,-23 0,-223.999 z"
         id="path217"
         inkscape:connector-curvature="0"
         style="fill:#83836c" />
      <g
         id="g219"
         transform="translate(7968.2272,16632.616)">
        <polygon
           class="fil1"
           points="11664,9017 11824,9206 11664,9206 "
           id="polygon221"
           style="fill:#83836c" />
        <path
           class="fil1"
           d="m 10902,9017 715,0 0,208 0,26 28,0 188,0 0,866 -931,0 0,-1100 z m 500,373 c 13,0 24,11 24,24 l 0,502 c 0,14 -11,25 -24,25 l -154,-167 -142,0 c -9,0 -16,-7 -16,-16 l 0,-189 c 0,-9 7,-16 16,-16 l 145,0 151,-163 z m 114,81 c 13,28 22,58 29,88 6,31 9,62 9,93 0,33 -3,66 -11,98 -7,32 -18,64 -32,94 -4,9 -22,16 -30,9 -5,-3 -8,-10 -8,-17 l 0,0 0,0 0,-2 0,0 0,0 c 0,-2 1,-5 1,-7 9,-28 15,-56 20,-86 4,-29 6,-59 6,-89 0,-29 -2,-57 -6,-84 -3,-28 -9,-55 -17,-81 -3,-10 0,-22 7,-26 9,-6 28,0 32,10 z m 34,-101 c 9,-6 24,-1 30,8 24,42 42,86 54,132 13,46 19,94 19,142 0,48 -6,96 -19,142 -12,46 -30,90 -54,132 -6,9 -21,14 -30,7 -8,-6 -9,-18 -5,-27 16,-39 29,-80 38,-123 8,-42 13,-87 13,-131 0,-45 -5,-89 -13,-132 -9,-43 -22,-84 -38,-122 -4,-9 -3,-22 5,-28 z"
           id="path223"
           inkscape:connector-curvature="0"
           style="fill:#83836c" />
        <path
           class="fil1"
           d="m 10711,8746 399,0 c 23,0 43,20 43,44 l 0,69 353,0 c 24,0 43,19 43,43 l 0,36 -652,0 c -29,0 -59,24 -68,53 l 0,441 -126,-1 c -20,-3 -36,-21 -36,-43 l 0,-598 c 0,-24 20,-44 44,-44 z"
           id="path225"
           inkscape:connector-curvature="0"
           style="fill:#83836c" />
      </g>
      <path
         class="fil1"
         d="m 16453.227,25374.616 894,0 0,261 0,32 36,0 235,0 0,1086.999 -1165,0 0,-1379.999 z m 954,1 200,236 -200,0 0,-236 z m -271,916.999 0,0 -10,7 -12,9 -12,5 -12,5 -12,4 -14,3 -13,2 -14,1 0,0 -15,-1 -14,-2 -12,-3 -13,-4 -12,-5 -12,-5 -11,-9 -11,-7 -289,0 0,0 11,31 13,31 14,29 17,27 19,26 22,24 22,22 26,20 25,19 28,17 28,13 31,12 31,11 34,7 32,3 34,2 0,0 35,-2 34,-3 32,-7 31,-11 30,-12 29,-13 28,-17 27,-19 24,-20 24,-22 20,-24 19,-26 17,-27 15,-29 12,-31 10,-31 -286,0 0,0 z m -203,-218 0,0 10,-7.999 12,-9 12,-6 14,-6 13,-3 14,-3 14,-4 15,0 0,0 14,0 15,4 14,3 13,3 12,6 12,6 12,9 10,7.999 283,0 0,0 -10,-31.999 -12,-29 -15,-29 -17,-27 -19,-26 -22,-24 -22,-22 -24,-20 -27,-19 -28,-17 -29,-14 -30,-12 -31,-8 -32,-7 -34,-5 -35,-2 0,0 -34,2 -32,5 -32,7 -33,8 -29,12 -29,14 -29,17 -25,19 -24,20 -24,22 -21,24 -18,26 -17,27 -16,29 -12,29 -10,31.999 283,0 0,0 z m -155,-149.999 0,0 9,-8 13,-12 19,-12 22,-14 22,-13 19,-9 14,-5 5,0 2,2 63,153 0,0 1,5 0,5 -1,5 0,0 -4,0 -7,4 -15,10 -15,12 -7,7 0,0 -4,2 -3,3 -3,-2 -7,-3 -123,-116 0,0 -2,-3 0,-4 0,-3 2,-4 0,0 z m 223,-99 0,0 -3,-1 -5,-2 -10,0 -11,2 -6,1 0,0 -6,2 -1,2 0,3 37,174 0,0 12,-1 5,0 5,1 0,0 -13,-170 0,0 -2,-5 -2,-6 0,0 z"
         id="path227"
         inkscape:connector-curvature="0"
         style="fill:#83836c" />
      <path
         class="fil1"
         d="m 20818.227,25374.616 895,0 0,261 0,32 35,0 236,0 0,1086.999 -1166,0 0,-1379.999 z m 955,1 199,236 -199,0 0,-236 z m -839,526 712,0 0,50 -712,0 0,-50 z m 0,126 795,0 0,49.999 -795,0 0,-49.999 z m 0,125.999 687,0 0,50 -687,0 0,-50 z m 0,126 828,0 0,50 -828,0 0,-50 z m 0,126 693,0 0,50 -693,0 0,-50 z"
         id="path229"
         inkscape:connector-curvature="0"
         style="fill:#83836c" />
      <path
         class="fil1"
         d="m 27366.227,25374.616 895,0 0,261 0,32 35,0 236,0 0,1086.999 -1166,0 0,-1379.999 z m 955,1 199,236 -199,0 0,-236 z m -705,830.999 36,-36 c 18,-18 47,-18 65,0 l 159,158 304,-303.999 c 18,-18 47,-18 65,0 l 37,36 c 17,17.999 17,46.999 0,64.999 l -374,374 -1,1 -1,0 -1,1 0,1 -1,1 -1,0 -1,1 -1,0 0,0 -1,1 0,0 -1,1 0,0 -1,0 0,0 -1,1 0,0 -1,0 -1,1 -1,0 -1,1 -1,0 -1,0 -1,1 -1,0 -1,0 -1,1 -2,0 -1,0 -1,0 -1,1 -1,0 -1,0 -1,0 -1,0 -1,0 -1,0 -1,0 -1,0 -2,0 0,0 -1,0 0,0 -1,0 0,0 -1,0 0,0 -1,-1 0,0 -1,0 0,0 -1,0 0,0 -1,0 0,0 -1,-1 0,0 -1,0 0,0 -1,0 0,0 -1,-1 0,0 -2,0 0,0 -1,0 0,0 -1,-1 0,0 -1,0 0,0 c -4,-2 -9,-5 -13,-9 l -227,-228 c -18,-18 -18,-47 0,-65 z"
         id="path231"
         inkscape:connector-curvature="0"
         style="fill:#83836c" />
      <path
         class="fil1"
         d="m 23000.227,25374.616 895,0 0,261 0,32 36,0 235,0 0,1086.999 -1166,0 0,-1379.999 z m 955,1 200,236 -200,0 0,-236 z"
         id="path233"
         inkscape:connector-curvature="0"
         style="fill:#83836c" />
      <path
         class="fil1"
         d="m 25183.227,25374.616 895,0 0,261 0,32 36,0 235,0 0,1086.999 -1166,0 0,-1379.999 z m 955,1 200,236 -200,0 0,-236 z m -272,639 90,0 c 18,0 33,15 33,33 l 0,542.999 c 0,18 -15,33 -33,33 l -90,0 c -19,0 -33,-15 -33,-33 l 0,-542.999 c 0,-18 14,-33 33,-33 z m -485,-90 90,0 c 18,0 33,14 33,33 l 0,632.999 c 0,18 -15,33 -33,33 l -90,0 c -19,0 -33,-15 -33,-33 l 0,-632.999 c 0,-19 14,-33 33,-33 z m 242,-124 90,0 c 19,0 33,15 33,33 l 0,756.999 c 0,18 -14,33 -33,33 l -90,0 c -18,0 -33,-15 -33,-33 l 0,-756.999 c 0,-18 15,-33 33,-33 z"
         id="path235"
         inkscape:connector-curvature="0"
         style="fill:#83836c" />
      <path
         class="fil1"
         d="m 31874.227,26138.615 c 77,81 -109,178 -188,126 -88,-88 105,-207.999 188,-126 z m 635,-911.999 -180,825 825,-180 -260,255.999 -591,135 -40,40 c 30,9 58,26 82,50 100,100 102,290 6,426 -96,135 -255,164 -355,64 -100,-99 -103,-290 -6,-425 28,-41 63,-71 99,-92 l -38,-38 c -21,36 -52,70 -92,99 -135,96 -326,94 -425,-6 -100,-100 -71,-259 64,-354.999 135,-96 326,-94 426,6 28,28 46,59.999 54,94.999 l 38,-38 136,-601.999 257,-260 z m -271,1275.999 c -81,-77 -178,109 -127,187 89,89 209,-104 127,-187 z"
         id="path237"
         inkscape:connector-curvature="0"
         style="fill:#83836c" />
      <g
         id="g239"
         transform="translate(7968.2272,16632.616)">
        <path
           class="fil2"
           d="m 29372,9432 c 0,182 -74,347 -194,467 -119,119 -284,193 -467,193 -182,0 -347,-74 -467,-193 -119,-120 -193,-285 -193,-467 0,-182 74,-348 193,-467 120,-120 285,-194 467,-194 183,0 348,74 467,194 120,119 194,285 194,467 z m -249,412 c 105,-106 171,-251 171,-412 0,-161 -66,-307 -171,-412 -105,-105 -251,-170 -412,-170 -161,0 -306,65 -412,170 -105,105 -170,251 -170,412 0,161 65,306 170,412 106,105 251,170 412,170 161,0 307,-65 412,-170 z"
           id="path241"
           inkscape:connector-curvature="0"
           style="fill:#83836c;fill-rule:nonzero" />
        <circle
           class="fil1"
           cx="28711"
           cy="9432"
           r="487"
           id="circle243"
           style="fill:#83836c" />
        <path
           class="fil2"
           d="m 28668,9444 -239,-239 32,-31 238,237 c 13,-6 28,-6 42,-1 l 187,-187 32,32 -188,188 c 7,19 3,42 -13,57 -21,22 -56,22 -78,0 -15,-15 -19,-37 -13,-56 z"
           id="path245"
           inkscape:connector-curvature="0"
           style="fill:#83836c;fill-rule:nonzero" />
      </g>
      <g
         id="g247"
         transform="translate(7968.2272,16632.616)">
        <path
           class="fil1"
           d="m 21604,8758 659,0 0,192 0,23 26,0 173,0 0,82 -629,0 0,718 -229,0 0,-1015 z m 703,0 147,174 -147,0 0,-174 z"
           id="path249"
           inkscape:connector-curvature="0"
           style="fill:#83836c" />
        <path
           class="fil1"
           d="m 21865,9091 658,0 0,192 0,24 26,0 173,0 0,799 -857,0 0,-1015 z m 702,0 147,174 -147,0 0,-174 z"
           id="path251"
           inkscape:connector-curvature="0"
           style="fill:#83836c" />
        <g
           id="g253">
          <rect
             class="fil1"
             x="22069"
             y="9418"
             width="269.67599"
             height="30.753799"
             id="rect255"
             style="fill:#83836c" />
          <rect
             class="fil1"
             x="22069"
             y="9506"
             width="471.362"
             height="30.753799"
             id="rect257"
             style="fill:#83836c" />
          <rect
             class="fil1"
             x="22069"
             y="9595"
             width="471.362"
             height="30.753799"
             id="rect259"
             style="fill:#83836c" />
          <rect
             class="fil1"
             x="22069"
             y="9684"
             width="471.362"
             height="30.753799"
             id="rect261"
             style="fill:#83836c" />
          <rect
             class="fil1"
             x="22069"
             y="9773"
             width="471.362"
             height="30.753799"
             id="rect263"
             style="fill:#83836c" />
          <rect
             class="fil1"
             x="22069"
             y="9862"
             width="471.362"
             height="30.753799"
             id="rect265"
             style="fill:#83836c" />
        </g>
      </g>
      <path
         class="fil1"
         d="m 40898.227,25377.616 c 292,0 530,237 530,529 0,93 -24,179.999 -67,255.999 5,4 10,8 14,12 l 297,298 c 64,63 64,167 0,231 l 0,0 c -63,63 -167,63 -231,0 l -297,-297 c -7,-7 -13,-14 -18,-22 -69,33 -146,52 -228,52 -292,0 -529,-238 -529,-529.999 0,-292 237,-529 529,-529 z m 0,204 c 180,0 326,146 326,325 0,179.999 -146,325.999 -326,325.999 -179,0 -325,-146 -325,-325.999 0,-179 146,-325 325,-325 z m -184,255 116,0 0,-115 c 0,-37 30,-67 66,-67 l 0,0 c 37,0 67,30 67,67 l 0,115 116,0 c 36,0 66,30 66,67 l 0,0 c 0,37 -30,67 -66,67 l -116,0 0,114.999 c 0,37 -30,67 -67,67 l 0,0 c -36,0 -66,-30 -66,-67 l 0,-114.999 -116,0 c -36,0 -66,-30 -67,-67 l 0,0 c 1,-37 31,-67 67,-67 z"
         id="path267"
         inkscape:connector-curvature="0"
         style="fill:#83836c" />
      <g
         id="g269"
         transform="translate(7968.2272,16632.616)">
        <polygon
           class="fil2"
           points="4379,8993 4379,9145 4487,9145 4487,9037 5139,9037 5139,9827 4498,9827 4498,9741 4390,9741 4390,9881 4390,9925 4444,9925 5193,9925 5247,9925 5247,9881 5247,8993 5247,8939 5193,8939 4433,8939 4379,8939 "
           id="polygon271"
           style="fill:#83836c;fill-rule:nonzero" />
        <polygon
           class="fil1"
           points="5004,9432 4813,9608 4623,9784 4623,9568 4157,9568 4157,9284 4623,9284 4623,9080 4813,9256 "
           id="polygon273"
           style="fill:#83836c" />
      </g>
      <path
         class="fil1"
         d="m 38255.227,25457.616 0,0 c 83,-83 220,-83 303,0 l 304,304 303,-304 c 84,-84 220,-83 304,0 l 0,0 c 83,83 83,220 0,303 l -304,304 304,302.999 c 83,84 83,220 0,304 l 0,0 c -84,83 -220,83 -304,0 l -303,-304 -304,304 c -83,83 -220,83 -303,0 l 0,0 c -83,-84 -83,-220 0,-304 l 304,-302.999 -304,-304 c -83,-83 -83,-220 0,-303 z"
         id="path275"
         inkscape:connector-curvature="0"
         style="fill:#83836c" />
      <path
         class="fil1"
         d="m 43081.227,25377.616 c 292,0 529,237 529,529 0,93 -24,179.999 -66,255.999 5,4 9,8 14,12 l 297,298 c 64,63 64,167 0,231 l 0,0 c -64,63 -168,63 -231,0 l -298,-297 c -6,-7 -12,-14 -18,-22 -69,33 -146,52 -227,52 -292,0 -529,-238 -529,-529.999 0,-292 237,-529 529,-529 z m 0,204 c 180,0 325,146 325,325 0,179.999 -145,325.999 -325,325.999 -179,0 -325,-146 -325,-325.999 0,-179 146,-325 325,-325 z m -188,255 364,0 c 37,0 67,30 67,67 l 0,0 c 0,37 -30,67 -67,67 l -364,0 c -37,0 -67,-30 -67,-67 l 0,0 c 0,-37 30,-67 67,-67 z"
         id="path277"
         inkscape:connector-curvature="0"
         style="fill:#83836c" />
      <path
         class="fil2"
         d="m 35136.227,29961.615 c -66,-66 -147,-98 -242,-97 -149,2 -277,83 -382,244 l 0,-1 -26,48 c 0,0 -11,-21 -27,-50 l 0,4 c -39,-80 -89,-139 -149,-179 -60,-39 -127,-58 -199,-58 -95,1 -178,32 -249,91 -71,60 -105,137 -105,230 1,32 11,79 30,140 36,91 129,209 282,355 152,146 258,255 317,327 60,71 99,169 117,292 15,-108 71,-217 170,-325 99,-109 212,-229 340,-361 127,-132 198,-233 212,-304 8,-25 11,-58 11,-100 -1,-104 -35,-190 -100,-256 z"
         id="path281"
         inkscape:connector-curvature="0"
         style="fill:#83836c;fill-rule:nonzero" />
      <g
         id="g291"
         transform="translate(7968.2272,16632.616)">
        <path
           class="fil1"
           d="m 10902,13538 715,0 0,209 0,25 28,0 188,0 0,867 -931,0 0,-1101 z m 762,1 160,188 -160,0 0,-188 z m -365,321 c 164,0 297,133 297,297 0,65 -21,126 -57,175 7,27 18,50 41,57 29,9 77,0 159,-41 13,-6 28,-1 35,12 6,13 0,28 -12,34 -96,47 -156,56 -197,44 -34,-11 -53,-34 -65,-63 -53,49 -123,79 -201,79 -164,0 -297,-133 -297,-297 0,-164 133,-297 297,-297 z m 0,369 c 48,0 86,38 86,86 0,47 -38,85 -86,85 -47,0 -85,-38 -86,-85 1,-48 39,-86 86,-86 z m 0,-326 c 48,0 86,39 86,86 0,48 -38,86 -86,86 -47,0 -86,-38 -85,-86 0,-47 38,-86 85,-86 z m -77,249 c 0,47 -38,86 -86,86 -47,0 -85,-39 -85,-86 0,-47 38,-86 85,-86 48,0 86,39 86,86 z m 326,0 c 0,47 -39,86 -86,86 -47,0 -86,-39 -86,-86 0,-47 39,-86 86,-86 47,0 86,39 86,86 z"
           id="path293"
           inkscape:connector-curvature="0"
           style="fill:#83836c" />
        <path
           class="fil1"
           d="m 10711,13268 399,0 c 23,0 43,20 43,44 l 0,69 353,0 c 24,0 43,19 43,43 l 0,36 -652,0 c -29,0 -59,24 -68,53 l 0,440 -126,0 c -20,-3 -36,-21 -36,-43 l 0,-598 c 0,-24 20,-44 44,-44 z"
           id="path295"
           inkscape:connector-curvature="0"
           style="fill:#83836c" />
      </g>
      <path
         class="fil1"
         d="m 16538.227,30157.615 499,0 c 30,0 54,24 54,54 l 0,87 442,0 c 30,0 54,24 54,54 l 0,45 -816,0 c -36,0 -74,30 -85,66 l -157,552 c -26,-5 -46,-27 -46,-54 l 0,-750 c 0,-30 25,-54 55,-54 z"
         id="path297"
         inkscape:connector-curvature="0"
         style="fill:#83836c" />
      <path
         class="fil1"
         d="m 17687.227,30317.615 -154,538 c -9,32 -43,58 -75,58 l -1032,0 c -32,0 -51,-26 -42,-58 l 154,-538 c 9,-33 43,-59 75,-59 l 1032,0 c 32,0 51,27 42,59 z"
         id="path299"
         inkscape:connector-curvature="0"
         style="fill:#83836c" />
      <g
         id="g301"
         transform="translate(7968.2272,16632.616)">
        <path
           class="fil1"
           d="m 13433,13406 c 187,0 340,152 340,340 0,103 -46,195 -119,258 l -443,0 c -72,-63 -118,-155 -118,-258 0,-188 152,-340 340,-340 z"
           id="path303"
           inkscape:connector-curvature="0"
           style="fill:#83836c" />
        <path
           class="fil1"
           d="m 13634,14028 c 1,5 2,9 2,14 l 0,41 -406,57 0,-98 c 0,-5 0,-9 1,-14 l 403,0 z m 2,89 0,80 -406,57 0,-80 406,-57 z m 0,115 0,79 -406,58 0,-80 406,-57 z m 0,114 0,73 c 0,46 -45,83 -100,83 l -207,0 c -55,0 -99,-37 -99,-83 l 0,-16 406,-57 z"
           id="path305"
           inkscape:connector-curvature="0"
           style="fill:#83836c" />
      </g>
      <g
         id="g307"
         transform="translate(7968.2272,16632.616)">
        <path
           class="fil1"
           d="m 19981,13214 c 408,0 740,331 740,740 0,408 -332,740 -740,740 -409,0 -740,-332 -740,-740 0,-409 331,-740 740,-740 z m 0,66 c 372,0 674,301 674,674 0,372 -302,674 -674,674 -373,0 -674,-302 -674,-674 0,-373 301,-674 674,-674 z"
           id="path309"
           inkscape:connector-curvature="0"
           style="fill:#83836c" />
        <path
           class="fil1"
           d="m 20421,14171 c 0,87 0,182 0,269 129,-133 223,-281 222,-474 -8,-34 -28,-43 -61,-26 -5,27 -25,34 -60,20 -20,-66 -84,-78 -150,-88 34,-29 86,-56 113,10 37,11 53,-12 90,11 21,2 41,1 62,3 -32,-291 -70,-174 -237,-231 -68,-85 -84,-25 -77,126 -41,13 -94,50 -34,121 -170,140 -85,306 132,259 z"
           id="path311"
           inkscape:connector-curvature="0"
           style="fill:#83836c" />
        <polygon
           class="fil1"
           points="19670,14530 19670,14532 19675,14531 19686,14531 19696,14534 19704,14540 19711,14546 19717,14552 19724,14559 19729,14565 19735,14570 19740,14573 19743,14575 19746,14575 19749,14575 19752,14572 19758,14566 19768,14552 19779,14539 19790,14525 19801,14513 19812,14500 19824,14488 19835,14477 19847,14465 19858,14454 19870,14443 19881,14433 19892,14422 19904,14412 19914,14402 19925,14393 19936,14383 19946,14373 19955,14364 19965,14354 19974,14345 19982,14336 19990,14327 19998,14317 20005,14308 20011,14299 20017,14289 20022,14280 20026,14271 20030,14261 20033,14251 20035,14242 20036,14231 20037,14224 20037,14218 20035,14212 20033,14207 20030,14203 20027,14198 20022,14194 20016,14191 20009,14187 20001,14184 19992,14181 19981,14179 19970,14177 19959,14175 19946,14174 19926,14174 19919,14161 19914,14155 19910,14148 19905,14141 19900,14135 19895,14128 19890,14122 19884,14115 19878,14109 19872,14103 19866,14097 19859,14091 19852,14085 19845,14080 19838,14075 19831,14070 19823,14066 19815,14061 19807,14057 19799,14054 19790,14051 19781,14048 19772,14045 19762,14043 19753,14042 19743,14041 19732,14040 19722,14040 19711,14040 19700,14041 19689,14043 19673,14046 19655,14036 19641,14028 19628,14019 19615,14010 19603,14000 19591,13991 19580,13981 19570,13971 19560,13962 19552,13953 19544,13943 19537,13935 19530,13927 19525,13919 19521,13912 19519,13905 19517,13898 19519,13889 19525,13883 19532,13880 19540,13878 19548,13877 19558,13877 19569,13878 19580,13880 19593,13883 19607,13887 19621,13893 19636,13900 19653,13908 19669,13918 19680,13925 19682,13924 19687,13918 19691,13912 19694,13903 19695,13893 19697,13882 19698,13869 19699,13856 19702,13843 19706,13830 19713,13816 19723,13804 19736,13793 19752,13783 19773,13776 19794,13772 19804,13763 19817,13752 19831,13742 19844,13733 19858,13725 19871,13717 19883,13710 19894,13703 19904,13697 19912,13691 19919,13685 19923,13681 19925,13678 19925,13676 19925,13675 19923,13673 19917,13670 19907,13665 19899,13659 19890,13652 19882,13645 19875,13637 19868,13629 19861,13621 19855,13612 19849,13603 19844,13594 19839,13585 19835,13576 19831,13567 19827,13558 19825,13549 19822,13540 19820,13532 19819,13524 19818,13516 19818,13508 19819,13500 19820,13493 19822,13487 19825,13480 19829,13475 19834,13470 19840,13466 19847,13464 19855,13464 19863,13465 19866,13466 19867,13465 19867,13464 19864,13459 19859,13453 19853,13446 19845,13439 19835,13432 19825,13426 19814,13420 19802,13416 19791,13413 19780,13412 19770,13413 19766,13414 19763,13422 19758,13436 19754,13449 19751,13462 19748,13475 19745,13487 19743,13499 19741,13511 19740,13523 19739,13534 19738,13545 19737,13555 19736,13565 19735,13575 19735,13584 19734,13593 19734,13602 19733,13610 19733,13618 19732,13625 19731,13633 19730,13639 19728,13645 19726,13651 19723,13657 19720,13662 19716,13667 19711,13671 19705,13673 19699,13675 19692,13676 19682,13675 19659,13659 19640,13646 19625,13634 19612,13622 19601,13611 19592,13601 19586,13591 19581,13580 19579,13570 19578,13561 19580,13551 19583,13543 19588,13535 19593,13527 19599,13520 19606,13514 19613,13507 19620,13501 19627,13494 19634,13487 19641,13480 19648,13473 19654,13465 19660,13457 19665,13448 19669,13439 19672,13429 19674,13418 19675,13407 19674,13394 19672,13380 19672,13380 19667,13382 19659,13387 19649,13393 19639,13399 19628,13406 19615,13414 19603,13423 19589,13433 19575,13443 19561,13454 19547,13466 19532,13479 19517,13492 19502,13506 19488,13522 19473,13538 19459,13554 19445,13572 19431,13590 19419,13610 19406,13630 19395,13651 19384,13673 19374,13695 19366,13719 19358,13743 19352,13769 19346,13795 19343,13822 19341,13847 19344,13855 19349,13864 19356,13873 19363,13882 19370,13891 19379,13900 19388,13908 19398,13917 19409,13925 19420,13933 19431,13941 19443,13949 19455,13956 19467,13964 19480,13971 19493,13978 19505,13985 19518,13992 19531,13999 19543,14006 19556,14013 19568,14020 19580,14027 19592,14033 19603,14040 19614,14047 19624,14054 19634,14061 19643,14068 19651,14075 19659,14082 19672,14097 19659,14113 19654,14120 19649,14128 19645,14135 19641,14142 19639,14149 19637,14156 19635,14163 19634,14169 19634,14176 19634,14182 19635,14189 19636,14195 19637,14201 19639,14207 19642,14213 19645,14219 19648,14225 19652,14231 19656,14236 19660,14242 19665,14247 19670,14252 19675,14257 19681,14262 19687,14267 19693,14271 19700,14276 19706,14280 19713,14284 19720,14288 19735,14296 19731,14313 19728,14321 19726,14329 19723,14337 19720,14345 19717,14353 19713,14361 19710,14368 19706,14376 19703,14383 19699,14390 19696,14398 19692,14405 19689,14412 19686,14419 19683,14426 19680,14434 19677,14441 19675,14448 19673,14455 19671,14462 19669,14469 19668,14477 19667,14484 19666,14491 19666,14499 19666,14506 19667,14514 19668,14522 "
           id="polygon313"
           style="fill:#83836c" />
        <path
           class="fil1"
           d="m 19782,13326 c 170,-27 323,-20 462,28 57,145 -176,166 -235,259 -96,3 -36,-242 -185,-245 -28,-1 -54,-24 -42,-42 z"
           id="path315"
           inkscape:connector-curvature="0"
           style="fill:#83836c" />
      </g>
      <path
         class="fil1"
         d="m 23074.227,30076.615 c 281,-281 737,-281 1019,0 281,282 281,738 0,1019 -282,281 -738,281 -1019,0 -281,-281 -281,-737 0,-1019 z m 208,104 707,708 c 148,-199 132,-480 -48,-660 -180,-180 -461,-196 -659,-48 z m 603,811 -707,-707 c -148,198 -132,480 48,659 180,180 461,196 659,48 z"
         id="path317"
         inkscape:connector-curvature="0"
         style="fill:#83836c" />
      <g
         id="g319"
         transform="translate(7968.2272,16632.616)">
        <path
           class="fil1"
           d="m 18008,13310 c 251,0 456,204 456,455 0,207 -138,382 -327,437 l -232,-402 -81,142 0,-221 -270,0 c 23,-231 217,-411 454,-411 z"
           id="path321"
           inkscape:connector-curvature="0"
           style="fill:#83836c" />
        <polygon
           class="fil1"
           points="17132,13767 17778,13767 17778,14021 17662,14222 17563,14394 17132,14394 "
           id="polygon323"
           style="fill:#83836c" />
        <polygon
           class="fil1"
           points="17498,14598 17701,14245 17905,13892 18109,14245 18313,14598 "
           id="polygon325"
           style="fill:#83836c" />
      </g>
      <path
         class="fil1"
         d="m 32137.227,29896.615 354,0 c 21,0 38,17 38,38 l 0,437 437,0 c 21,0 38,17 38,38 l 0,353 c 0,21 -17,38 -38,38 l -437,0 0,437 c 0,21 -17,38 -38,38 l -354,0 c -21,0 -38,-17 -38,-38 l 0,-437 -437,0 c -21,0 -38,-17 -38,-38 l 0,-353 c 0,-21 17,-38 38,-38 l 437,0 0,-437 c 0,-21 17,-38 38,-38 z"
         id="path327"
         inkscape:connector-curvature="0"
         style="fill:#83836c" />
      <path
         class="fil2"
         d="m 36251.227,30899.615 0,0 88,135 79,123 c 16,24 48,53 87,53 l 7,0 17,0 457,0 7,0 18,0 c 60,0 109,-49 109,-110 l 0,-832 c 0,-63 -119,-63 -119,0 l 0,301 c -5,15 -19,26 -36,26 -16,0 -29,-9 -35,-23 l 0,-449 c 0,-60 -111,-64 -119,-6 l 0,454 c -6,14 -20,24 -36,24 -17,0 -31,-11 -36,-26 l 1,-560 c 0,-63 -119,-63 -119,0 l 0,563 c -6,14 -20,23 -35,23 -18,0 -33,-11 -37,-27 l 0,-445 c 0,-63 -119,-63 -119,0 l 0,610 -1,0 0,41 c -4,14 -16,25 -30,27 l -13,0 c -13,-2 -24,-11 -29,-22 l 0,-186 c 0,-64 -119,-64 -119,0 l 0,233 c 0,50 6,62 13,73 z"
         id="path329"
         inkscape:connector-curvature="0"
         style="fill:#83836c;fill-rule:nonzero" />
      <g
         id="g331"
         transform="translate(7968.2272,16632.616)">
        <path
           class="fil1"
           d="m 22179,14527 -71,0 -54,-78 c 0,-14 -1,-29 -1,-43 l 253,0 c -1,14 -1,29 -1,43 l -55,78 -71,0 z"
           id="path333"
           inkscape:connector-curvature="0"
           style="fill:#83836c" />
        <path
           class="fil1"
           d="m 22177,14542 -73,0 -57,-80 c 0,-144 -12,-277 -89,-352 -64,-59 -104,-143 -104,-236 0,-178 145,-323 323,-323 178,0 323,145 323,323 0,93 -40,177 -104,236 -77,75 -89,208 -89,352 l -57,80 -73,0 z m -98,-206 196,0 c 11,-103 39,-211 90,-260 55,-51 89,-123 89,-203 0,-153 -124,-277 -277,-277 -153,0 -277,124 -277,277 0,80 34,152 88,203 51,49 80,157 91,260 z m 193,29 -191,0 c 1,9 1,18 2,27 l 188,0 c 0,-9 1,-18 1,-27 z m -2,56 -187,0 c 0,2 0,5 0,8 l 10,15 168,0 9,-15 c 0,-3 0,-6 0,-8 z m -25,53 -134,0 13,24 53,0 55,0 13,-24 z"
           id="path335"
           inkscape:connector-curvature="0"
           style="fill:#83836c" />
        <path
           class="fil1"
           d="m 22638,13879 -84,0 c -12,0 -21,-9 -21,-21 l 0,0 c 0,-11 9,-21 21,-21 l 84,0 c 12,0 21,10 21,21 l 0,0 c 0,12 -9,21 -21,21 z"
           id="path337"
           inkscape:connector-curvature="0"
           style="fill:#83836c" />
        <path
           class="fil1"
           d="m 21773,13879 -84,0 c -12,0 -21,-9 -21,-21 l 0,0 c 0,-11 9,-21 21,-21 l 84,0 c 11,0 21,10 21,21 l 0,0 c 0,12 -10,21 -21,21 z"
           id="path339"
           inkscape:connector-curvature="0"
           style="fill:#83836c" />
        <path
           class="fil1"
           d="m 22514,13538 -60,59 c -8,8 -21,8 -29,0 l 0,0 c -9,-8 -9,-21 0,-30 l 59,-59 c 8,-8 22,-8 30,0 l 0,0 c 8,8 8,22 0,30 z"
           id="path341"
           inkscape:connector-curvature="0"
           style="fill:#83836c" />
        <path
           class="fil1"
           d="m 21902,14149 -59,60 c -9,8 -22,8 -30,0 l 0,0 c -8,-8 -8,-22 0,-30 l 59,-59 c 8,-8 22,-8 30,0 l 0,0 c 8,8 8,21 0,29 z"
           id="path343"
           inkscape:connector-curvature="0"
           style="fill:#83836c" />
        <path
           class="fil1"
           d="m 22484,14209 -59,-60 c -9,-8 -9,-21 0,-29 l 0,0 c 8,-8 21,-8 29,0 l 60,59 c 8,8 8,22 0,30 l 0,0 c -8,8 -22,8 -30,0 z"
           id="path345"
           inkscape:connector-curvature="0"
           style="fill:#83836c" />
        <path
           class="fil1"
           d="m 21872,13597 -59,-59 c -8,-8 -8,-22 0,-30 l 0,0 c 8,-8 21,-8 30,0 l 59,59 c 8,9 8,22 0,30 l 0,0 c -8,8 -22,8 -30,0 z"
           id="path347"
           inkscape:connector-curvature="0"
           style="fill:#83836c" />
        <path
           class="fil1"
           d="m 22163,13471 0,-85 c 0,-11 9,-21 21,-21 l 0,0 c 11,0 21,10 21,21 l 0,85 c 0,11 -10,21 -21,21 l 0,0 c -12,0 -21,-10 -21,-21 z"
           id="path349"
           inkscape:connector-curvature="0"
           style="fill:#83836c" />
      </g>
      <path
         class="fil2"
         d="m 40901.227,30488.615 -206,0 0,0 -24,0 c -24,0 -47,5 -67,13 -22,9 -41,22 -57,39 l -1,0 c -16,16 -29,35 -38,57 -8,20 -13,43 -13,67 0,24 5,46 13,67 9,21 22,41 39,57 16,16 35,29 57,38 20,9 43,14 67,14 l 723,0 2,0 22,0 c 24,0 47,-5 67,-14 22,-9 41,-22 58,-38 l 0,0 c 16,-16 29,-36 38,-57 9,-21 13,-43 13,-67 0,-24 -4,-47 -13,-67 -8,-19 -19,-37 -32,-52 l -6,-5 c -17,-17 -36,-30 -58,-39 -20,-9 -43,-13 -67,-13 l 0,0 -130,-1 -24,0 0,-24 0,-134 0,-25 24,0 130,0 0,0 c 49,0 96,10 138,28 l 0,0 c 44,18 83,45 116,78 l 22,22 -1,0 c 24,29 43,60 58,95 17,42 27,88 27,137 0,48 -10,95 -27,137 -18,44 -45,84 -78,117 l -1,0 c -33,33 -72,60 -116,78 -42,18 -88,27 -136,27 l 0,0 -2,0 -22,0 -2,0 -723,0 c -49,0 -95,-9 -137,-27 -44,-18 -84,-45 -117,-78 l 0,0 c -33,-33 -60,-73 -79,-117 -17,-42 -27,-89 -27,-137 0,-49 10,-95 27,-137 19,-44 46,-84 79,-117 33,-33 73,-60 117,-79 42,-17 88,-27 137,-27 l 24,0 0,0 223,0 c -23,-45 -61,-86 -61,-139 0,-26 61,-19 84,0 84,66 169,132 253,198 23,18 23,48 0,66 -84,66 -169,132 -253,198 -23,18 -84,26 -84,0 0,-41 23,-91 44,-139 z"
         id="path351"
         inkscape:connector-curvature="0"
         style="fill:#83836c;fill-rule:nonzero" />
      <g
         id="g353"
         transform="translate(7968.2272,16632.616)">
        <g
           id="g355">
          <path
             class="fil1"
             d="m 4059,13584 499,0 c 28,0 51,21 54,47 l -89,90 0,0 c -25,24 -37,56 -37,88 l 0,0 c 0,5 0,10 1,15 l -195,0 c -36,0 -74,30 -85,66 l -157,551 c -26,-4 -46,-26 -46,-53 l 0,-750 c 0,-30 25,-54 55,-54 z m 761,240 -2,0 2,-1 0,1 z"
             id="path357"
             inkscape:connector-curvature="0"
             style="fill:#83836c" />
          <path
             class="fil1"
             d="m 5397,13935 -153,538 c -10,32 -44,59 -76,59 l -1032,0 c -32,0 -51,-27 -42,-59 l 154,-538 c 9,-32 43,-59 76,-59 l 181,0 c 5,8 11,15 18,22 l 0,1 c 44,41 112,15 190,-23 l 107,0 0,371 c 0,52 43,95 95,95 l 0,0 92,0 0,0 c 52,0 94,-43 94,-95 l 0,-371 91,0 c 75,37 142,61 189,25 l 2,-1 2,-2 c 2,-2 4,-4 5,-6 9,10 12,26 7,43 z"
             id="path359"
             inkscape:connector-curvature="0"
             style="fill:#83836c" />
          <path
             class="fil1"
             d="m 5361,13874 c 35,-36 35,-94 0,-129 l -343,-342 c -35,-36 -93,-36 -129,0 l -342,342 c -36,35 -36,93 0,129 49,46 185,-55 307,-103 l 0,476 c 0,34 28,61 61,61 l 92,0 c 33,0 60,-27 60,-61 l 0,-470 c 116,49 239,139 294,97 z"
             id="path361"
             inkscape:connector-curvature="0"
             style="fill:#83836c" />
        </g>
        <path
           class="fil1"
           d="m 5361,13874 c 35,-36 35,-94 0,-129 l -343,-342 c -35,-36 -93,-36 -129,0 l -342,342 c -36,35 -36,93 0,129 49,46 185,-55 307,-103 l 0,476 c 0,34 28,61 61,61 l 92,0 c 33,0 60,-27 60,-61 l 0,-470 c 116,49 239,139 294,97 z"
           id="path363"
           inkscape:connector-curvature="0"
           style="fill:#83836c" />
      </g>
      <path
         class="fil2"
         d="m 38433.227,30842.615 0,0 z m 107,-120 c 5,12 16,20 28,22 l 13,0 c 15,-2 27,-14 31,-28 l 0,-40 0,0 0,-610 c 0,-33 27,-45 55,-47 30,0 64,8 64,47 l 0,449 c 6,13 20,23 36,23 17,0 31,-11 36,-27 l 0,-130 c 0,-64 119,-63 119,0 l 0,135 c 6,13 19,22 34,22 18,0 33,-12 38,-29 l 0,0 0,-77 c 8,-57 118,-54 118,7 l 0,77 c 6,13 20,22 35,22 18,0 32,-12 37,-27 l 0,-32 c 0,-63 119,-63 119,0 l 0,564 c 0,61 -49,109 -110,109 l -17,0 -7,0 -457,0 -17,0 -8,0 c -39,0 -70,-28 -86,-53 l -79,-122 -89,-135 c -7,-11 -12,-23 -12,-73 l 0,-233 c 0,-64 119,-64 119,0 l 0,186 z"
         id="path365"
         inkscape:connector-curvature="0"
         style="fill:#83836c;fill-rule:nonzero" />
      <g
         id="g367"
         transform="translate(7968.2272,16632.616)">
        <path
           class="fil1"
           d="m 34617,14275 360,-379 c 35,-38 97,-38 136,0 l 193,182 c 39,38 43,99 7,137 l -359,379 c -36,38 -97,38 -137,0 l -192,-182 c -40,-38 -43,-99 -8,-137 z m 127,26 265,-280 c 20,-21 54,-22 75,-2 l 100,95 c 21,20 22,54 2,75 l -265,280 c -20,21 -53,22 -74,2 l -101,-95 c -21,-20 -22,-54 -2,-75 z"
           id="path369"
           inkscape:connector-curvature="0"
           style="fill:#83836c" />
        <path
           class="fil1"
           d="m 35205,13693 360,-380 c 35,-37 97,-37 136,0 l 193,183 c 40,37 43,99 7,136 l -359,380 c -36,37 -97,37 -137,-1 l -192,-182 c -40,-38 -43,-99 -8,-136 z m 127,25 265,-279 c 20,-21 54,-22 75,-2 l 100,95 c 21,20 22,54 2,75 l -264,279 c -20,21 -54,22 -75,2 l -101,-95 c -21,-20 -22,-54 -2,-75 z"
           id="path371"
           inkscape:connector-curvature="0"
           style="fill:#83836c" />
        <rect
           class="fil1"
           transform="matrix(0.186904,-0.183049,0.183049,0.186904,34932.2,14162.6)"
           width="2985"
           height="545"
           rx="209"
           ry="209"
           id="rect373"
           x="0"
           y="0"
           style="fill:#83836c" />
      </g>
      <rect
         style="fill:#83836c"
         y="-35186.527"
         x="32514.516"
         id="rect421"
         ry="38.07864"
         rx="38.07864"
         height="1379.293"
         width="428.73727"
         transform="matrix(0,1,-1,0,0,0)"
         class="fil1" />
      <path
         style="fill:#83836c"
         inkscape:connector-curvature="0"
         id="path429"
         d="m 19346.227,32865.615 -28,28 -112,0 0,99 -99,0 0,77 -172,0 0,167 -91,0 0,120 c -70,39 -161,29 -221,-31 l 0,0 c -72,-72 -72,-190 0,-262 l 459,-458 c 19,58 52,113 98,159 48,48 106,82 166,101 z m 410,-677 c 148,147 148,386 0,533 -147,147 -386,147 -533,0 -147,-147 -147,-386 0,-533 147,-147 386,-147 533,0 z m -78,78 c 41,41 41,107 0,147 -40,41 -106,41 -147,0 -40,-40 -40,-106 0,-147 41,-40 107,-40 147,0 z"
         class="fil1" />
      <g
         id="g431"
         transform="translate(7968.2272,16632.616)">
        <polygon
           style="fill:#83836c"
           id="polygon433"
           points="8709,16316 8659,16316 8661,16122 9051,16122 9047,15893 9112,15893 9111,16122 9498,16122 9498,16316 9447,16316 9447,16176 8709,16176 "
           class="fil1" />
        <rect
           style="fill:#83836c"
           id="rect435"
           height="492"
           width="811"
           y="15423"
           x="8656"
           class="fil1" />
        <rect
           style="fill:#83836c"
           id="rect437"
           height="468"
           width="575"
           y="16301"
           x="8392"
           class="fil1" />
        <rect
           style="fill:#83836c"
           id="rect439"
           height="468"
           width="575"
           y="16301"
           x="9167"
           class="fil1" />
      </g>
      <path
         style="fill:#83836c"
         inkscape:connector-curvature="0"
         id="path441"
         d="m 20811.227,32658.615 878,0 0,-112 -1,0 c 0,-79 -32,-151 -84,-203 l 0,-1 c -52,-51 -124,-84 -203,-84 l 0,0 c -79,0 -151,33 -203,85 l 0,0 c -43,43 -73,99 -82,162 l -195,0 c 9,-116 61,-221 139,-300 l 1,0 c 87,-87 207,-141 340,-141 l 0,0 c 132,0 252,54 340,142 l 0,-1 c 87,88 142,208 142,341 l -1,0 0,112 108,0 0,735 -1179,0 0,-735 z m 591,165 c 50,0 91,41 91,92 0,33 -18,63 -45,79 l 5,52 c 4,48 9,105 16,173 -22,0 -45,0 -67,0 -22,0 -45,0 -67,0 5,-69 10,-126 14,-175 l 4,-51 c -26,-17 -43,-45 -43,-78 0,-51 41,-92 92,-92 z"
         class="fil1" />
      <path
         style="fill:#83836c"
         inkscape:connector-curvature="0"
         id="path443"
         d="m 21401.227,32531.615 c 50,0 91,41 91,91 0,34 -18,63 -45,79 l 5,52 c 4,49 10,105 16,173 -22,0 -45,0 -67,0 -22,0 -45,0 -67,0 5,-68 10,-126 14,-175 l 4,-51 c -26,-16 -43,-45 -43,-78 0,-50 41,-91 92,-91 z"
         class="fil1" />
      <path
         style="fill:#83836c"
         inkscape:connector-curvature="0"
         id="path445"
         d="m 21990.227,32658.615 -877,0 0,-112 0,0 c 0,-79 33,-151 85,-203 l 0,-1 c 52,-51 123,-84 203,-84 l 0,0 c 79,0 151,33 203,85 l 0,0 c 43,43 72,99 81,162 l 196,0 c -10,-116 -62,-221 -140,-300 l 0,0 c -88,-87 -208,-141 -340,-141 l 0,0 c -133,0 -253,54 -341,142 l 0,-1 c -87,88 -141,208 -141,341 l 0,0 0,112 -108,0 0,735 1179,0 0,-735 z m -590,165 c -51,0 -92,41 -92,92 0,33 18,63 45,79 l -4,52 c -5,48 -10,105 -16,173 22,0 44,0 66,0 23,0 45,0 68,0 -6,-69 -11,-126 -15,-175 l -4,-51 c 26,-17 44,-45 44,-78 0,-51 -42,-92 -92,-92 z"
         class="fil1" />
      <g
         id="g447"
         transform="translate(7968.2272,16632.616)">
        <circle
           style="fill:#83836c"
           id="circle449"
           r="219"
           cy="16528"
           cx="19549"
           class="fil1" />
        <path
           style="fill:#83836c;fill-rule:nonzero"
           inkscape:connector-curvature="0"
           id="path451"
           d="m 19451,15689 c -67,0 -121,-55 -121,-122 0,-67 54,-121 121,-121 326,0 621,132 835,345 213,214 345,509 345,835 0,67 -54,121 -121,121 -67,0 -122,-54 -122,-121 0,-259 -104,-493 -274,-663 -170,-169 -404,-274 -663,-274 z"
           class="fil2" />
        <path
           style="fill:#83836c;fill-rule:nonzero"
           inkscape:connector-curvature="0"
           id="path453"
           d="m 19451,16070 c -67,0 -121,-54 -121,-121 0,-67 54,-121 121,-121 221,0 420,89 565,233 144,145 234,344 234,565 0,67 -55,121 -122,121 -67,0 -121,-54 -121,-121 0,-154 -62,-292 -163,-393 -100,-100 -239,-163 -393,-163 z"
           class="fil2" />
      </g>
      <path
         style="fill:#83836c"
         inkscape:connector-curvature="0"
         id="path455"
         d="m 22994.227,32658.615 0,0 108,0 0,-112 0,0 c 0,-18 0,-35 2,-52 l 1,-3 0,-2 0,0 1,-5 0,-5 0,-1 1,-5 0,0 1,-5 0,-1 1,-5 0,-1 1,-4 0,-2 3,-12 0,-2 1,-4 0,-1 1,-4 0,-1 2,-5 0,0 1,-6 0,0 2,-5 0,-1 1,-4 0,-1 2,-4 0,-2 1,-3 1,-3 1,-2 1,-3 0,-2 2,-4 4,-11 0,0 2,-5 0,0 2,-5 0,-1 5,-11 1,-2 1,-3 c 3,-5 5,-11 8,-16 l 0,0 2,-5 0,0 c 23,-45 53,-86 89,-122 l 0,0 c 68,-68 157,-116 255,-133 l 0,0 6,-1 0,0 6,-1 0,0 6,-1 0,0 6,-1 0,0 6,-1 0,0 6,-1 0,0 6,0 0,0 6,-1 0,0 6,0 1,0 6,0 0,0 6,-1 0,0 6,0 0,0 6,0 0,0 6,0 0,0 0,0 6,0 1,0 6,0 0,0 6,0 0,0 6,1 0,0 6,0 0,0 6,0 0,0 6,1 0,0 6,0 0,0 6,1 0,0 6,1 0,0 6,1 0,0 6,1 0,0 6,1 0,0 6,1 0,0 c 99,17 187,65 255,133 l 1,0 c 22,22 41,46 59,72 l 0,1 c 8,11 16,24 23,36 l 2,5 4,8 0,0 5,9 0,1 1,1 4,9 0,1 2,3 1,2 c 2,6 5,11 7,17 l 2,5 0,0 2,6 1,4 1,1 1,4 3,7 0,3 3,9 1,1 1,4 0,1 2,9 2,6 0,1 0,1 1,4 1,3 1,5 2,8 0,3 1,2 1,4 0,0 0,4 2,8 0,0 0,5 0,1 1,5 0,1 1,4 c 0,5 1,10 1,14 l 0,2 0,0 c 2,14 2,27 2,41 l 0,0 0,112 108,0 0,0 0,735 0,0 -1179,0 0,0 0,-735 z m 301,0 576,0 0,-112 0,0 c 0,-14 -1,-28 -3,-42 l -1,-4 0,-1 0,0 0,-2 -1,-2 0,-1 0,-2 -1,-1 -1,-6 0,0 0,-3 -1,-1 0,-2 0,-1 -1,-2 -1,-4 -1,-4 0,0 0,-1 0,0 -1,-3 -1,-2 0,-1 0,-1 -2,-6 0,0 -1,-3 -1,0 0,-3 0,0 -2,-4 0,0 0,-1 -1,-1 -1,-3 -1,-2 -2,-4 0,-1 0,-1 -1,-1 -1,-2 -1,-3 0,-1 c -3,-5 -5,-10 -8,-15 l 0,0 0,0 0,0 c -4,-6 -7,-12 -11,-18 l -1,-2 -2,-3 -1,-1 0,0 0,-1 -3,-4 0,0 c -7,-10 -14,-18 -22,-27 l 0,0 c -3,-4 -6,-7 -10,-10 l 0,-1 c -2,-2 -5,-4 -7,-7 l 0,0 -2,-2 -1,0 -2,-2 0,0 c -29,-26 -64,-46 -102,-59 l 0,0 -3,-1 0,0 -4,-1 0,0 -3,-1 0,0 -4,-1 0,0 -3,-1 0,0 -3,0 -1,0 -3,-1 0,0 -3,-1 0,0 -4,-1 0,0 -3,-1 0,0 -4,0 0,0 -3,-1 -1,0 -3,0 0,0 -4,-1 0,0 -3,0 0,0 -4,-1 -3,0 -4,-1 0,0 -4,0 0,0 -3,0 0,0 -4,0 0,0 -4,0 0,0 -3,-1 0,0 -4,0 0,0 -4,0 0,0 0,0 -3,0 0,0 -4,0 0,0 -4,1 0,0 -3,0 0,0 -4,0 -4,0 -3,0 -4,1 -4,0 -3,1 -4,0 -3,1 -4,0 -4,1 -3,0 -4,1 -3,1 -3,1 -4,1 -3,0 -4,1 -3,1 -4,1 -3,1 -3,1 -4,1 0,0 -3,2 0,0 -3,1 0,0 c -30,11 -57,26 -82,46 l 0,0 -2,2 0,0 -3,2 0,0 -3,2 0,1 -2,2 0,0 -3,2 0,0 -2,2 0,0 -8,7 0,1 c -11,11 -22,24 -31,37 l 0,0 -4,5 -1,2 -1,1 -1,1 -1,2 -5,9 -1,2 -1,1 -1,1 -1,2 0,1 -1,2 0,0 -2,3 0,0 -5,10 0,0 -3,7 -1,1 0,1 -1,1 -2,5 0,1 0,0 -2,5 0,1 -1,2 -1,1 0,1 -1,3 0,0 -1,3 0,0 -1,3 0,0 -1,2 0,2 -1,1 0,2 -1,1 0,2 0,1 -1,3 0,0 -1,3 0,0 -1,2 0,0 -2,9 0,0 0,1 0,2 -1,3 0,1 c -1,4 -2,9 -2,13 l 0,0 c -2,14 -3,27 -3,41 l -1,0 0,112 z m 241,336 0,0 -3,29 -1,21 c -4,49 -9,106 -15,175 l 0,0 1,0 0,0 1,0 1,0 0,0 1,0 0,0 1,0 0,0 1,0 0,0 1,0 1,0 0,0 1,0 0,0 1,0 0,0 1,0 0,0 1,0 0,0 1,0 0,0 1,0 0,0 1,0 0,0 1,0 0,0 1,0 0,0 1,0 0,0 1,0 0,0 1,0 0,0 1,0 0,0 1,0 1,0 1,0 0,0 1,0 0,0 1,0 0,0 1,0 1,0 0,0 1,0 1,0 0,0 1,0 0,0 1,0 0,0 1,0 0,0 1,0 0,0 1,0 0,0 1,0 0,0 1,0 0,0 1,0 0,0 1,0 0,0 1,0 0,0 1,0 0,0 1,0 0,0 1,0 0,0 1,0 0,0 1,0 1,0 0,0 1,0 0,0 1,0 0,0 1,0 0,0 1,0 0,0 1,0 0,0 1,0 0,0 1,0 0,0 1,0 1,0 0,0 1,0 0,0 1,0 0,0 1,0 0,0 1,0 0,0 1,0 0,0 1,0 0,0 1,0 0,0 1,0 0,0 1,0 0,0 1,0 1,0 0,0 1,0 0,0 1,0 0,0 1,0 0,0 1,0 0,0 1,0 0,0 1,0 0,0 1,0 0,0 1,0 0,0 1,0 0,0 1,0 1,0 0,0 1,0 0,0 1,0 0,0 1,0 0,0 1,0 0,0 1,0 0,0 1,0 0,0 1,0 0,0 1,0 0,0 1,0 0,0 1,0 0,0 1,0 0,0 1,0 0,0 1,0 1,0 0,0 1,0 0,0 1,0 0,0 1,0 0,0 1,0 0,0 1,0 1,0 0,0 1,0 0,0 1,0 0,0 1,0 0,0 1,0 0,0 1,0 0,0 1,0 0,0 1,0 0,0 1,0 0,0 1,0 0,0 1,0 0,0 1,0 0,0 1,0 0,0 1,0 0,0 1,0 0,0 1,0 0,0 1,0 0,0 1,0 1,0 0,0 1,0 1,0 0,0 1,0 0,0 1,0 0,0 1,0 0,0 1,0 0,0 1,0 0,0 1,0 0,0 1,0 0,0 1,0 0,0 1,0 0,0 1,0 0,0 1,0 0,0 1,0 0,0 1,0 0,0 1,0 0,0 1,0 1,0 c -6,-69 -11,-126 -15,-175 l -2,-21 -2,-29 0,0 0,-1 c 26,-17 43,-45 43,-78 0,-50 -40,-91 -89,-92 l -1,0 -2,0 0,0 c -50,1 -90,42 -90,92 0,33 18,61 44,78 l 0,1 z"
         class="fil1" />
      <path
         style="fill:#83836c"
         inkscape:connector-curvature="0"
         id="path457"
         d="m 25075.227,32615.615 76,-76 c 37,-37 98,-37 135,0 l 329,329 631,-632 c 37,-37 98,-37 135,0 l 76,76 c 37,37 37,97 0,134 l -775,775 -2,2 -2,2 -2,1 -1,2 -2,1 -2,2 -2,1 -2,1 0,0 -2,2 0,0 -2,1 0,0 -2,1 0,0 -2,1 0,0 -2,1 -2,1 -3,1 -2,1 -2,1 -2,1 -2,0 -2,1 -3,1 -2,0 -2,1 -2,0 -3,0 -2,1 -2,0 -2,0 -3,1 -2,0 -2,0 -2,0 -3,0 -2,0 -2,0 0,0 -3,-1 0,0 -2,0 0,0 -2,0 0,0 -2,-1 0,0 -3,0 0,0 -2,0 0,0 -2,-1 0,0 -2,0 0,0 -3,-1 0,0 -2,-1 0,0 -2,0 0,0 -2,-1 0,0 -2,-1 0,0 -2,-1 0,0 -2,-1 -1,0 c -9,-4 -18,-11 -27,-19 l -472,-472 c -37,-37 -37,-97 0,-134 z"
         class="fil1" />
      <g
         id="g459"
         transform="translate(7968.2272,16632.616)">
        <path
           style="fill:#83836c"
           inkscape:connector-curvature="0"
           id="path461"
           d="m 23990,15516 737,0 c 12,0 22,10 22,22 l 0,507 c 0,12 -10,22 -22,22 l -737,0 c -12,0 -21,-10 -21,-22 l 0,-507 c 0,-12 9,-22 21,-22 z m -41,-49 820,0 c 22,0 40,17 40,39 l 0,571 c 0,22 -18,39 -40,39 l -820,0 c -22,0 -40,-17 -40,-39 l 0,-571 c 0,-22 18,-39 40,-39 z"
           class="fil1" />
        <path
           style="fill:#83836c"
           inkscape:connector-curvature="0"
           id="path463"
           d="m 23949,16168 820,0 c 22,0 40,17 40,40 l 0,171 c 0,22 -18,39 -40,39 l -382,0 0,153 140,0 c 9,0 17,7 17,17 l 0,47 301,0 c 5,0 9,4 9,9 l 0,39 c 0,5 -4,9 -9,9 l -301,0 0,17 c 0,10 -8,17 -17,17 l -350,0 c -9,0 -17,-7 -17,-17 l 0,-17 -313,0 c -5,0 -9,-4 -9,-9 l 0,-39 c 0,-5 4,-9 9,-9 l 313,0 0,0 0,-47 c 0,-10 8,-17 17,-17 l 153,0 0,-153 -381,0 c -22,0 -40,-17 -40,-39 l 0,-171 c 0,-23 18,-40 40,-40 z m 542,80 186,0 c 5,0 9,4 9,9 l 0,38 c 0,6 -4,10 -9,10 l -186,0 c -5,0 -9,-4 -9,-10 l 0,-38 c 0,-5 4,-9 9,-9 z"
           class="fil1" />
      </g>
      <path
         style="fill:#83836c"
         inkscape:connector-curvature="0"
         id="path465"
         d="m 36102.227,32048.615 1154,0 c 43,0 78,36 78,78 l 0,1204 c 0,43 -35,78 -78,78 l -1154,0 c -43,0 -78,-35 -78,-78 l 0,-1204 c 0,-42 35,-78 78,-78 z m 132,104 890,0 c 34,0 61,27 61,60 l 0,509 c 0,33 -27,60 -61,60 l -890,0 c -33,0 -60,-27 -60,-60 l 0,-509 c 0,-33 27,-60 60,-60 z m 7,429 802,0 0,66 -802,0 0,-66 z m 0,-133 802,0 0,67 -802,0 0,-67 z m 0,-132 802,0 0,66 -802,0 0,-66 z m 59,563 59,0 c -18,1 -32,15 -32,33 l 0,368 c 0,18 15,33 33,33 l -60,0 c -18,0 -33,-15 -33,-33 l 0,-368 c 0,-18 15,-33 33,-33 z m 232,0 398,0 c 18,0 33,15 33,33 l 0,368 c 0,18 -15,33 -33,33 l -399,0 c 18,0 33,-15 33,-33 l 0,-368 c 0,-18 -14,-32 -32,-33 z"
         class="fil1" />
      <path
         style="fill:#83836c"
         inkscape:connector-curvature="0"
         id="path467"
         d="m 30020.227,32091.615 c 310,0 568,220 626,512 l 234,0 -164,195 -164,195 -164,-195 -164,-195 226,0 c -54,-186 -226,-322 -430,-322 -247,0 -447,200 -447,447 0,248 200,448 447,448 103,0 198,-35 273,-93 l 78,178 c -100,66 -221,105 -351,105 -352,0 -637,-285 -637,-638 0,-352 285,-637 637,-637 z"
         class="fil1" />
      <path
         style="fill:#83836c"
         inkscape:connector-curvature="0"
         id="path469"
         d="m 40564.227,32283.615 78,0 0,347 c -8,-32 -45,-57 -90,-57 l -71,0 0,-191 c 0,-54 37,-99 83,-99 z m 856,349 0,-224 -164,-125 269,0 c 46,0 83,45 83,99 l 0,191 -71,0 c -46,0 -84,26 -90,59 l -27,0 z"
         class="fil1" />
      <path
         style="fill:#83836c"
         inkscape:connector-curvature="0"
         id="path471"
         d="m 41783.227,33170.615 0,48 c 0,29 -31,53 -69,53 l -1339,0 c -38,0 -69,-24 -69,-53 l 0,-48 c 15,9 35,15 55,15 l 149,0 0,-65 c 0,-28 29,-50 66,-50 l 938,0 c 36,0 65,22 65,50 l 0,65 149,0 c 21,0 40,-6 55,-15 z"
         class="fil1" />
      <path
         style="fill:#83836c;fill-rule:nonzero"
         inkscape:connector-curvature="0"
         id="path473"
         d="m 40661.227,32614.615 767,0 c 7,-15 19,-28 34,-38 20,-13 46,-21 75,-21 l 191,0 c 63,0 115,39 115,88 l 0,472 c 0,48 -52,88 -115,88 l -149,0 -24,0 0,-18 0,-65 c 0,-9 -4,-17 -12,-23 -7,-6 -18,-9 -29,-9 l -938,0 c -12,0 -22,3 -30,9 -8,6 -12,14 -12,23 l 0,65 0,18 -24,0 -149,0 0,0 c -63,0 -115,-40 -115,-88 l 0,-472 c 0,-49 52,-88 115,-88 l 191,0 c 29,0 55,8 75,21 15,10 27,23 34,38 z m 786,36 -805,0 -20,0 -3,-15 c -2,-13 -11,-24 -23,-32 -12,-7 -27,-12 -44,-12 l -191,0 c -37,0 -67,23 -67,52 l 0,472 c 0,28 30,52 67,52 l 0,0 125,0 0,-47 c 0,-19 10,-36 26,-48 17,-13 39,-20 64,-20 l 938,0 c 24,0 47,7 63,20 16,12 26,29 26,48 l 0,47 125,0 c 37,0 68,-24 68,-52 l 0,-472 c 0,-29 -31,-52 -68,-52 l -191,0 c -17,0 -32,5 -44,12 -12,8 -21,19 -23,32 l -3,15 -20,0 z"
         class="fil2" />
      <path
         style="fill:#83836c;fill-rule:nonzero"
         inkscape:connector-curvature="0"
         id="path475"
         d="m 40642.227,32186.615 504,0 c 5,0 9,2 12,4 l 0,0 274,209 c 3,2 4,5 4,9 l 0,224 c 0,7 -7,13 -16,13 l -1,0 -777,0 c -9,0 -17,-6 -17,-13 l 0,-1 0,-432 c 0,-7 8,-13 17,-13 z m 497,26 -480,0 0,407 744,0 0,-206 -264,-201 z"
         class="fil2" />
      <path
         style="fill:#83836c;fill-rule:nonzero"
         inkscape:connector-curvature="0"
         id="path477"
         d="m 41420.227,32420.615 -2,0 -272,0 c -9,0 -17,-5 -17,-12 l 0,-1 0,-208 c 0,-7 8,-13 17,-13 5,0 9,2 12,4 l 0,0 273,209 c 7,5 7,13 0,18 -3,2 -7,3 -11,3 z m -257,-25 216,0 -216,-165 0,165 z"
         class="fil2" />
      <ellipse
         style="fill:#83836c"
         id="ellipse479"
         ry="39"
         rx="51"
         cy="32732.615"
         cx="41671.227"
         class="fil1" />
      <path
         style="fill:#83836c;fill-rule:nonzero"
         inkscape:connector-curvature="0"
         id="path481"
         d="m 41671.227,32687.615 c 16,0 31,5 41,13 l 0,0 0,0 c 11,8 17,19 17,32 0,12 -6,23 -17,31 l 0,0 c -10,8 -25,13 -41,13 -16,0 -31,-5 -41,-13 -11,-8 -17,-19 -17,-31 0,-13 6,-24 17,-32 l 0,0 c 10,-8 25,-13 41,-13 z m 31,21 c -8,-6 -19,-10 -31,-10 -12,0 -23,4 -31,10 l 0,0 c -8,6 -13,14 -13,24 0,9 5,17 13,23 8,6 19,10 31,10 12,0 23,-4 31,-10 l 0,0 c 8,-6 13,-14 13,-23 0,-10 -5,-18 -13,-24 l 0,0 z"
         class="fil2" />
      <ellipse
         style="fill:#83836c"
         id="ellipse483"
         ry="39"
         rx="51"
         cy="32837.617"
         cx="41671.227"
         class="fil1" />
      <path
         style="fill:#83836c;fill-rule:nonzero"
         inkscape:connector-curvature="0"
         id="path485"
         d="m 41671.227,32793.615 c 16,0 31,5 41,13 l 0,0 0,0 c 11,8 17,19 17,31 0,12 -6,23 -17,31 l 0,0 c -10,8 -25,13 -41,13 -16,0 -31,-5 -41,-13 -11,-8 -17,-19 -17,-31 0,-12 6,-23 17,-31 l 0,0 c 10,-8 25,-13 41,-13 z m 31,20 c -8,-6 -19,-9 -31,-9 -12,0 -23,3 -31,9 l 0,0 c -8,6 -13,15 -13,24 0,9 5,18 13,24 8,6 19,9 31,9 12,0 23,-3 31,-9 l 0,0 c 8,-6 13,-15 13,-24 0,-9 -5,-18 -13,-24 l 0,0 z"
         class="fil2" />
      <path
         style="fill:#83836c;fill-rule:nonzero"
         inkscape:connector-curvature="0"
         id="path487"
         d="m 13173.227,32207.615 c 0,0 60,-258 -152,-79 l -199,351 -701,-7 -100,159 629,119 -159,298 -168,13 -77,106 239,53 135,172 63,-112 -63,-172 189,-279 414,477 96,-165 -338,-596 192,-338 z"
         class="fil2" />
      <g
         id="g489"
         transform="translate(7968.2272,16632.616)">
        <path
           style="fill:#83836c"
           inkscape:connector-curvature="0"
           id="path491"
           d="m 30366,15612 124,0 0,-218 808,0 0,218 124,0 c 102,0 186,83 186,186 l 0,326 c 0,102 -84,186 -186,186 l -74,0 0,-280 -908,0 0,280 -74,0 c -102,0 -186,-84 -186,-186 l 0,-326 c 0,-103 84,-186 186,-186 z m 1089,129 c 25,0 44,20 44,44 0,24 -19,44 -44,44 -24,0 -44,-20 -44,-44 0,-24 20,-44 44,-44 z m 0,352 c 25,0 44,19 44,44 0,24 -19,44 -44,44 -24,0 -44,-20 -44,-44 0,-25 20,-44 44,-44 z"
           class="fil1" />
        <path
           style="fill:#83836c;fill-rule:nonzero"
           inkscape:connector-curvature="0"
           id="path493"
           d="m 30502,16061 784,0 35,0 0,35 0,668 0,35 -35,0 -784,0 -35,0 0,-35 0,-668 0,-35 35,0 z m 749,70 -714,0 0,597 714,0 0,-597 z"
           class="fil2" />
        <g
           id="g495">
          <rect
             style="fill:#83836c"
             id="rect497"
             height="50.143299"
             width="476.49799"
             y="16201"
             x="30613"
             class="fil1" />
          <rect
             style="fill:#83836c"
             id="rect499"
             height="50.143299"
             width="366.233"
             y="16301"
             x="30613"
             class="fil1" />
          <rect
             style="fill:#83836c"
             id="rect501"
             height="50.143299"
             width="499.69501"
             y="16402"
             x="30613"
             class="fil1" />
          <rect
             style="fill:#83836c"
             id="rect503"
             height="50.143299"
             width="430.064"
             y="16502"
             x="30613"
             class="fil1" />
        </g>
      </g>
      <path
         style="fill:#83836c"
         inkscape:connector-curvature="0"
         id="path505"
         d="m 43556.227,32314.615 93,-93 94,93 -94,93 -93,-93 z m -1036,570 798,-798 373,-62 243,244 -62,362 -803,803 -549,-549 z m 711,226 -52,52 -388,-388 52,-52 388,388 z m 108,-108 -51,52 -389,-389 52,-51 388,388 z"
         class="fil1" />
      <path
         class="fil1"
         d="m 34411.227,27676.615 177,0 c 29,0 52,23 52,52 l 0,682 c 0,28 -23,52 -52,52 l -177,0 c -29,0 -52,-24 -52,-52 l 0,-682 c 0,-29 23,-52 52,-52 z m 315,162 c 239,92 408,324 408,596 0,352 -285,638 -637,638 -353,0 -638,-286 -638,-638 0,-274 172,-507 414,-598 l 0,210 c -134,77 -224,222 -224,388 0,247 200,448 448,448 247,0 447,-201 447,-448 0,-164 -87,-307 -218,-385 l 0,-211 z"
         id="path509"
         inkscape:connector-curvature="0"
         style="fill:#83836c" />
      <g
         id="g511"
         transform="translate(7968.2272,16632.616)">
        <path
           class="fil1"
           d="m 6247,11568 139,0 c 1,72 60,131 132,131 73,0 132,-59 133,-131 l 468,0 c 1,72 60,131 132,131 73,0 131,-59 133,-131 l 139,0 c 62,0 112,51 112,113 l 0,0 c 0,59 -46,108 -104,112 l -168,556 c -9,28 -24,53 -54,53 l -869,0 c -29,0 -46,-25 -53,-53 l -148,-556 c -58,-4 -105,-53 -105,-112 l 0,0 c 0,-62 51,-113 113,-113 z m 200,296 876,0 c 16,0 29,12 29,28 l 0,0 c 0,16 -13,29 -29,29 l -876,0 c -16,0 -29,-13 -29,-29 l 0,0 c 0,-16 13,-28 29,-28 z m 75,134 726,0 c 16,0 29,13 29,29 l 0,0 c 0,16 -13,29 -29,29 l -726,0 c -16,0 -29,-13 -29,-29 l 0,0 c 0,-16 13,-29 29,-29 z m 82,126 562,0 c 16,0 29,13 29,29 l 0,0 c 0,16 -13,29 -29,29 l -562,0 c -16,0 -29,-13 -29,-29 l 0,0 c 0,-16 13,-29 29,-29 z"
           id="path513"
           inkscape:connector-curvature="0"
           style="fill:#83836c" />
        <g
           id="g515">
          <rect
             class="fil1"
             transform="matrix(2.11186,1.21928,-1.21928,2.11186,6733.65,11054.8)"
             width="58.695702"
             height="256.06699"
             rx="29"
             ry="29"
             id="rect517"
             x="0"
             y="0"
             style="fill:#83836c" />
          <rect
             class="fil1"
             transform="matrix(-2.11186,1.21928,1.21928,2.11186,7035.93,11054.8)"
             width="58.695702"
             height="256.06699"
             rx="29"
             ry="29"
             id="rect519"
             x="0"
             y="0"
             style="fill:#83836c" />
        </g>
      </g>
      <g
         id="g521"
         transform="translate(7968.2272,16632.616)">
        <g
           id="g523">
          <path
             class="fil2"
             d="m 11825,11703 0,647 0,0 c 0,8 -3,15 -9,21 -12,11 -31,11 -42,0 l -323,-328 c -11,-12 -11,-31 1,-42 l 320,-317 c 6,-6 14,-10 23,-10 16,0 30,13 30,29 z m -1099,-21 323,319 c 11,11 11,30 0,42 l -322,327 c -5,6 -13,10 -22,10 -16,0 -29,-14 -29,-30 l 0,-647 0,0 c 0,-7 2,-15 8,-21 11,-11 30,-11 42,0 z m 31,-85 210,0 200,200 c 39,39 102,39 142,0 l 199,-200 235,0 0,0 c 8,0 16,3 21,9 12,12 12,30 0,42 l -412,411 -1,2 c -19,19 -36,34 -51,44 -19,12 -35,19 -50,19 -14,0 -31,-7 -49,-19 -16,-10 -33,-25 -52,-44 l 0,0 -412,-412 c -6,-5 -10,-13 -10,-22 0,-17 13,-30 30,-30 z m 681,467 324,325 0,0 c 5,5 8,12 8,20 0,17 -13,30 -29,30 l -980,0 c -8,0 -16,-2 -23,-9 -11,-11 -11,-30 0,-41 l 324,-324 0,0 c 12,-12 31,-12 42,-1 l 53,53 0,0 0,0 c 12,12 26,21 41,27 l 1,1 c 16,6 33,9 51,9 19,0 36,-3 51,-9 l 0,0 0,0 c 15,-6 29,-16 42,-28 l 52,-52 1,0 0,-1 c 11,-11 30,-11 42,0 z m -42,1 0,-1 0,0 0,1 z"
             id="path525"
             inkscape:connector-curvature="0"
             style="fill:#83836c;fill-rule:nonzero" />
        </g>
        <path
           class="fil1"
           d="m 11570,11398 c 29,29 29,77 0,106 l -280,279 c -29,29 -76,29 -105,0 l -279,-279 c -29,-29 -29,-77 0,-106 40,-37 151,46 251,84 l 0,-388 c 0,-27 22,-50 49,-50 l 75,0 c 27,0 49,23 49,50 l 0,384 c 94,-40 195,-114 240,-80 z"
           id="path527"
           inkscape:connector-curvature="0"
           style="fill:#83836c" />
      </g>
      <g
         id="g529"
         transform="translate(7968.2272,16632.616)">
        <path
           class="fil2"
           d="m 9240,12001 300,299 0,0 c 5,5 8,12 8,20 0,15 -13,27 -28,27 l -904,0 c -7,0 -15,-2 -21,-8 -11,-11 -11,-28 0,-39 l 298,-298 1,-1 c 11,-10 28,-11 39,0 l 49,48 0,0 0,0 c 11,12 23,20 37,26 l 1,0 c 15,6 30,9 47,9 18,0 33,-3 47,-9 l 0,0 0,0 c 14,-5 27,-14 39,-26 l 48,-47 1,-1 0,0 c 11,-11 28,-11 38,0 z"
           id="path531"
           inkscape:connector-curvature="0"
           style="fill:#83836c;fill-rule:nonzero" />
        <path
           class="fil2"
           d="m 9550,11596 0,0 c 0,8 -2,15 -8,20 l -201,201 0,-164 -106,0 -16,0 0,-15 0,-117 -402,0 0,320 -223,-223 c -6,-5 -9,-13 -9,-21 l 0,-1 0,0 0,-1 c 0,-8 3,-16 9,-21 l 380,-379 0,0 c 18,-18 34,-32 48,-41 17,-12 32,-17 45,-17 14,0 29,5 46,17 14,9 30,23 48,41 l 1,1 380,380 c 6,5 8,13 8,20 z m -319,332 -23,22 -281,0 -23,-22 327,0 z m -57,56 -12,13 -1,1 -10,9 -167,0 -10,-9 0,0 -13,-14 213,0 z m -304,-91 -1,-1 0,-21 309,0 0,22 -308,0 z m 376,-372 90,106 -90,0 0,-106 z m -377,236 320,0 0,23 -320,0 0,-23 z m 0,57 358,0 0,23 -358,0 0,-23 z"
           id="path533"
           inkscape:connector-curvature="0"
           style="fill:#83836c;fill-rule:nonzero" />
        <path
           class="fil2"
           d="m 8583,11648 298,295 c 11,10 11,27 1,38 l -297,302 c -5,5 -13,9 -21,9 -15,0 -27,-12 -27,-27 l 0,-597 0,0 c 0,-7 3,-14 8,-19 10,-11 28,-11 38,-1 z"
           id="path535"
           inkscape:connector-curvature="0"
           style="fill:#83836c;fill-rule:nonzero" />
        <path
           class="fil2"
           d="m 9598,11668 0,597 0,0 c 0,7 -3,14 -8,19 -11,11 -28,11 -39,0 l -298,-303 c -10,-11 -10,-28 0,-38 l 296,-293 c 5,-6 13,-10 21,-10 16,0 28,12 28,28 z"
           id="path537"
           inkscape:connector-curvature="0"
           style="fill:#83836c;fill-rule:nonzero" />
      </g>
      <g
         id="g539"
         transform="matrix(10.437211,0,0,10.437211,-131483.24,-109791.88)"
         inkscape:export-xdpi="14.25"
         inkscape:export-ydpi="14.25"
         style="fill:#93c54b;fill-opacity:1">
        <path
           class="fil2"
           d="m 14043,11407 0,687 0,0 c 0,8 -4,16 -10,22 -12,13 -32,12 -44,0 l -343,-348 c -12,-12 -12,-32 1,-44 l 340,-337 c 6,-7 15,-11 24,-11 18,0 32,14 32,31 z m -1167,-22 343,339 c 12,12 12,32 0,44 l -341,347 c -6,6 -15,11 -24,11 -17,0 -31,-15 -31,-32 l 0,-687 0,0 c 0,-8 3,-16 9,-22 12,-12 32,-12 44,0 z m 33,-90 1047,0 0,0 c 8,0 17,3 23,9 12,13 12,32 0,45 l -438,437 -1,1 c -20,20 -39,36 -55,47 -19,13 -37,20 -52,20 -16,0 -33,-7 -53,-20 -16,-11 -34,-27 -54,-47 l 0,0 -437,-437 c -7,-6 -11,-14 -11,-24 0,-17 14,-31 31,-31 z m 723,496 344,344 0,0 c 5,6 9,14 9,22 0,17 -14,31 -31,31 l -1040,0 c -9,1 -18,-2 -24,-9 -13,-12 -13,-32 0,-44 l 343,-343 1,-1 c 12,-12 32,-12 44,0 l 56,55 0,0 0,0 c 13,13 28,23 43,30 l 2,0 c 16,7 34,10 54,10 19,0 37,-3 54,-10 l 0,0 0,0 c 16,-6 31,-16 44,-30 l 56,-54 0,-1 0,0 c 13,-12 33,-12 45,0 z m -45,0 0,0 0,0 0,0 z"
           id="path541"
           inkscape:connector-curvature="0"
           style="fill:#93c54b;fill-opacity:1;fill-rule:nonzero" />
      </g>
      <polygon
         class="fil1"
         points="19368,11604 19791,11542 19981,11159 20171,11542 20594,11604 20288,11903 20360,12325 19981,12127 19602,12325 19673,11903 "
         id="polygon543"
         style="fill:#83836c"
         transform="translate(7968.2272,16632.616)" />
      <path
         class="fil2"
         d="m 23873.554,28581.463 c 0,29 -5,50 -17,61 -11,12 -30,17 -57,17 l -1110,0 c -20,0 -37,-5 -50,-17 -16,-14 -24,-34 -24,-61 l 0,-797 c 0,-19 8,-36 23,-50 16,-15 33,-22 51,-22 l 1110,0 c 25,0 44,7 56,20 12,14 18,31 18,52 l 0,797 z m -855,-396 0,0 -329,-325 0,660 329,-335 z m 729,-403 0,0 -1005,0 421,421 c 37,37 64,56 81,56 18,0 45,-19 82,-56 l 421,-421 z m -2,798 0,0 -331,-330 -54,53 c -31,31 -70,47 -116,47 -45,0 -84,-16 -115,-47 l -54,-53 -331,330 1001,0 z m 55,-60 0,0 0,-660 -329,325 329,335 z"
         id="path545"
         inkscape:connector-curvature="0"
         style="fill:#83836c;fill-rule:nonzero" />
      <path
         class="fil1"
         d="m 25766.227,27791.615 190,383 423,62 -305,299 71,422 -379,-199 -379,199 72,-422 -306,-299 423,-62 190,-383 z m 0,206 123,248 273,40 -197,193 46,272 -245,-128 -245,128 46,-272 -197,-193 273,-40 123,-248 z"
         id="path547"
         inkscape:connector-curvature="0"
         style="fill:#83836c" />
      <path
         class="fil1"
         d="m 31805.227,27864.615 c 281,-281 737,-281 1018,0 282,282 282,738 0,1019 -281,281 -737,281 -1018,0 -282,-281 -282,-737 0,-1019 z m 207,104 708,708 c 147,-199 131,-480 -48,-660 -180,-180 -462,-196 -660,-48 z m 604,811 -708,-707 c -147,198 -131,480 48,659 180,180 462,196 660,48 z"
         id="path549"
         inkscape:connector-curvature="0"
         style="fill:#83836c" />
      <path
         class="fil1"
         d="m 36679.227,27653.615 c 398,0 721,323 721,721 0,397 -323,720 -721,720 -397,0 -720,-323 -720,-720 0,-398 323,-721 720,-721 z m 406,419 -302,302 302,301 c 63,-84 100,-188 100,-301 0,-113 -37,-218 -100,-302 z m -104,708 -302,-302 -301,301 c 84,63 188,100 301,100 113,0 218,-37 302,-99 z m -707,-105 301,-301 -301,-302 c -63,84 -100,189 -100,302 0,113 37,217 100,301 z m 103,-707 302,302 302,-302 c -84,-63 -189,-100 -302,-100 -113,0 -217,37 -302,100 z"
         id="path551"
         inkscape:connector-curvature="0"
         style="fill:#83836c" />
      <path
         class="fil2"
         d="m 30044.227,28278.615 c 15,0 27,-7 36,-19 9,-12 14,-27 14,-45 0,-20 -10,-68 -30,-141 -32,-119 -48,-207 -48,-264 0,-33 10,-61 28,-83 18,-23 46,-34 84,-34 38,0 66,11 85,33 18,22 27,51 27,85 0,57 -17,145 -51,263 -21,73 -31,120 -31,140 0,19 5,34 15,46 9,13 21,19 34,19 16,0 37,-10 61,-28 25,-18 61,-53 110,-105 107,-114 190,-172 249,-172 30,0 55,10 76,31 21,20 31,46 31,76 0,22 -5,41 -15,58 -10,17 -30,35 -61,55 -31,19 -63,34 -94,45 -32,10 -78,23 -140,39 -78,20 -126,37 -145,50 -18,13 -27,28 -27,46 0,16 7,30 22,43 14,13 56,27 126,43 119,27 206,56 260,86 53,31 80,69 80,116 0,31 -10,56 -32,77 -21,20 -45,31 -74,31 -30,0 -64,-11 -101,-33 -37,-21 -98,-75 -182,-160 -43,-45 -74,-73 -91,-85 -17,-12 -34,-18 -49,-18 -28,0 -42,15 -42,46 0,26 11,84 34,176 25,98 37,171 37,220 0,44 -9,79 -29,104 -20,24 -47,37 -81,37 -35,0 -62,-13 -81,-37 -20,-25 -30,-59 -30,-104 0,-42 5,-84 15,-126 9,-42 24,-105 45,-187 8,-31 12,-56 12,-75 0,-34 -13,-51 -40,-51 -18,0 -38,8 -60,25 -23,16 -64,54 -124,112 -67,64 -116,106 -149,126 -32,20 -63,30 -92,30 -27,0 -51,-11 -71,-32 -20,-21 -30,-47 -30,-79 0,-23 7,-44 20,-61 14,-18 40,-36 78,-55 39,-19 90,-39 155,-58 64,-19 109,-31 134,-38 68,-17 102,-39 102,-67 0,-22 -11,-39 -31,-51 -20,-12 -60,-25 -119,-38 -90,-19 -169,-46 -238,-79 -69,-34 -103,-74 -103,-120 0,-28 8,-53 26,-77 17,-23 42,-35 73,-35 35,0 72,11 111,34 39,23 87,66 142,130 79,90 135,135 169,135 z"
         id="path553"
         inkscape:connector-curvature="0"
         style="fill:#83836c;fill-rule:nonzero" />
      <path
         class="fil1"
         d="m 41217.227,28561.615 0,0 -17,12 -21,15 -20,8 -21,9 -20,6 -24,6 -23,3 -23,3 0,0 -27,-3 -23,-3 -21,-6 -23,-6 -21,-9 -20,-8 -18,-15 -20,-12 -495,0 0,0 17,53 24,53 23,49 29,47 33,44 38,41 38,38 44,36 44,32 46,29 50,23 53,21 53,18 58,11 56,6 59,3 0,0 58,-3 59,-6 55,-11 53,-18 53,-21 50,-23 47,-29 46,-32 41,-36 41,-38 36,-41 32,-44 29,-47 26,-49 21,-53 18,-53 -493,0 0,0 z m -348,-375 0,0 17,-14 21,-15 20,-12 24,-9 23,-5 24,-6 23,-6 27,0 0,0 23,0 26,6 24,6 23,5 21,9 20,12 21,15 17,14 487,0 0,0 -18,-55 -21,-50 -26,-50 -29,-47 -32,-44 -38,-41 -39,-38 -41,-35 -46,-32 -47,-30 -50,-23 -53,-21 -53,-14 -55,-12 -59,-9 -58,-3 0,0 -59,3 -56,9 -55,12 -56,14 -50,21 -50,23 -49,30 -44,32 -41,35 -41,38 -35,41 -33,44 -29,47 -26,50 -21,50 -17,55 486,0 0,0 z m -267,-258 0,0 15,-14 23,-21 33,-20 38,-24 38,-23 32,-15 23,-8 9,0 3,2 108,264 0,0 3,9 0,9 -3,8 0,0 -5,0 -12,6 -26,18 -27,20 -12,12 0,0 -5,3 -6,6 -6,-3 -12,-6 -211,-199 0,0 -3,-6 0,-6 0,-6 3,-6 0,0 z m 384,-169 0,0 -6,-3 -9,-3 -17,0 -18,3 -12,3 0,0 -8,2 -3,3 0,6 64,299 0,0 21,-3 9,0 8,3 0,0 -23,-293 0,0 -3,-9 -3,-8 0,0 z"
         id="path555"
         inkscape:connector-curvature="0"
         style="fill:#83836c" />
      <path
         class="fil1"
         d="m 12042.227,27745.615 1256,0 0,1257 -1256,0 0,-1257 z m 141,1089 6,-145 5,-145 86,85 111,-111 112,113 -111,110 81,81 -145,6 -145,6 z m 976,0 -6,-145 -6,-145 -85,85 -111,-111 -113,113 111,110 -80,81 145,6 145,6 z m -976,-928 6,145 5,145 86,-85 111,111 112,-113 -111,-111 81,-80 -145,-6 -145,-6 z m 976,0 -6,145 -6,145 -85,-85 -111,111 -113,-113 111,-111 -80,-80 145,-6 145,-6 z"
         id="path557"
         inkscape:connector-curvature="0"
         style="fill:#83836c" />
      <path
         class="fil2"
         d="m 39634.227,28374.615 c 0,213 -75,396 -226,547 -151,151 -333,226 -546,226 -213,0 -395,-75 -546,-226 -151,-151 -226,-334 -226,-547 0,-214 75,-396 226,-547 151,-151 333,-227 546,-227 213,0 395,76 546,227 151,151 226,333 226,547 z m -878,-183 0,0 -192,-334 c -90,52 -161,123 -215,213 -53,90 -79,189 -79,298 l 383,0 c 0,-81 34,-140 103,-177 z m 397,696 0,0 -190,-335 c -18,11 -35,19 -53,23 -17,4 -35,6 -56,6 -36,0 -68,-9 -98,-29 l -196,335 c 92,51 191,77 299,77 106,0 204,-25 294,-77 z m -180,-512 0,0 c 0,-32 -10,-59 -32,-81 -22,-22 -49,-33 -81,-33 -30,0 -57,11 -80,33 -24,22 -35,49 -35,81 0,32 11,60 32,82 22,22 50,33 83,33 31,0 57,-12 80,-35 22,-22 33,-49 33,-80 z m 481,-7 0,0 c 0,-105 -26,-202 -79,-293 -52,-90 -125,-163 -220,-218 l -190,332 c 67,43 100,102 100,179 l 389,0 z"
         id="path559"
         inkscape:connector-curvature="0"
         style="fill:#83836c;fill-rule:nonzero" />
      <g
         id="_1213236192"
         transform="translate(7968.2272,16632.616)">
        <polygon
           class="fil1"
           points="34910,11178 34833,11178 34833,12387 36090,12387 36090,12309 34910,12309 "
           id="polygon562"
           style="fill:#83836c" />
        <polygon
           class="fil1"
           points="35180,12179 35022,12179 35022,11564 35180,11564 "
           id="polygon564"
           style="fill:#83836c" />
        <path
           class="fil2"
           d="m 35022,11550 158,0 15,0 0,14 0,615 0,14 -15,0 -158,0 -16,0 0,-14 0,-615 0,-14 16,0 z m 143,29 -128,0 0,585 128,0 0,-585 z"
           id="path566"
           inkscape:connector-curvature="0"
           style="fill:#83836c;fill-rule:nonzero" />
        <polygon
           class="fil1"
           points="35397,12179 35238,12179 35238,11421 35397,11421 "
           id="polygon568"
           style="fill:#83836c" />
        <path
           class="fil2"
           d="m 35238,11407 159,0 15,0 0,14 0,758 0,14 -15,0 -159,0 -15,0 0,-14 0,-758 0,-14 15,0 z m 143,29 -128,0 0,728 128,0 0,-728 z"
           id="path570"
           inkscape:connector-curvature="0"
           style="fill:#83836c;fill-rule:nonzero" />
        <polygon
           class="fil1"
           points="35613,12179 35455,12179 35455,11790 35613,11790 "
           id="polygon572"
           style="fill:#83836c" />
        <path
           class="fil2"
           d="m 35455,11776 158,0 15,0 0,14 0,389 0,14 -15,0 -158,0 -15,0 0,-14 0,-389 0,-14 15,0 z m 143,29 -128,0 0,359 128,0 0,-359 z"
           id="path574"
           inkscape:connector-curvature="0"
           style="fill:#83836c;fill-rule:nonzero" />
        <polygon
           class="fil1"
           points="35830,12179 35672,12179 35672,11376 35830,11376 "
           id="polygon576"
           style="fill:#83836c" />
        <path
           class="fil2"
           d="m 35672,11361 158,0 15,0 0,15 0,803 0,14 -15,0 -158,0 -16,0 0,-14 0,-803 0,-15 16,0 z m 143,29 -128,0 0,774 128,0 0,-774 z"
           id="path578"
           inkscape:connector-curvature="0"
           style="fill:#83836c;fill-rule:nonzero" />
        <polygon
           class="fil1"
           points="34709,12198 34428,12198 34428,11200 34709,11200 "
           id="polygon580"
           style="fill:#83836c" />
      </g>
    </g>
  </g>
</svg>
